\relax 
\providecommand\hyper@newdestlabel[2]{}
\providecommand\HyperFirstAtBeginDocument{\AtBeginDocument}
\HyperFirstAtBeginDocument{\ifx\hyper@anchor\@undefined
\global\let\oldcontentsline\contentsline
\gdef\contentsline#1#2#3#4{\oldcontentsline{#1}{#2}{#3}}
\global\let\oldnewlabel\newlabel
\gdef\newlabel#1#2{\newlabelxx{#1}#2}
\gdef\newlabelxx#1#2#3#4#5#6{\oldnewlabel{#1}{{#2}{#3}}}
\AtEndDocument{\ifx\hyper@anchor\@undefined
\let\contentsline\oldcontentsline
\let\newlabel\oldnewlabel
\fi}
\fi}
\global\let\hyper@last\relax 
\gdef\HyperFirstAtBeginDocument#1{#1}
\providecommand\HyField@AuxAddToFields[1]{}
\providecommand\HyField@AuxAddToCoFields[2]{}
\@writefile{toc}{\contentsline {chapter}{\numberline {1}Namespace Index}{1}{chapter.1}}
\@writefile{lof}{\addvspace {10\p@ }}
\@writefile{lot}{\addvspace {10\p@ }}
\@writefile{toc}{\contentsline {section}{\numberline {1.1}Packages}{1}{section.1.1}}
\@writefile{toc}{\contentsline {chapter}{\numberline {2}Hierarchical Index}{3}{chapter.2}}
\@writefile{lof}{\addvspace {10\p@ }}
\@writefile{lot}{\addvspace {10\p@ }}
\@writefile{toc}{\contentsline {section}{\numberline {2.1}Class Hierarchy}{3}{section.2.1}}
\@writefile{toc}{\contentsline {chapter}{\numberline {3}Class Index}{5}{chapter.3}}
\@writefile{lof}{\addvspace {10\p@ }}
\@writefile{lot}{\addvspace {10\p@ }}
\@writefile{toc}{\contentsline {section}{\numberline {3.1}Class List}{5}{section.3.1}}
\@writefile{toc}{\contentsline {chapter}{\numberline {4}Namespace Documentation}{7}{chapter.4}}
\@writefile{lof}{\addvspace {10\p@ }}
\@writefile{lot}{\addvspace {10\p@ }}
\@writefile{toc}{\contentsline {section}{\numberline {4.1}Package mi\discretionary {\unhbox \voidb@x \hbox {\relax \fontsize  {7}{8}\selectfont  $\leftarrow \joinrel  \rhook $}}{}{}R\discretionary {\unhbox \voidb@x \hbox {\relax \fontsize  {7}{8}\selectfont  $\leftarrow \joinrel  \rhook $}}{}{}Net}{7}{section.4.1}}
\newlabel{namespacemi_r_net}{{4.1}{7}{Package mi\+R\+Net}{section.4.1}{}}
\@writefile{toc}{\contentsline {subsection}{\numberline {4.1.1}Detailed Description}{7}{subsection.4.1.1}}
\@writefile{toc}{\contentsline {chapter}{\numberline {5}Class Documentation}{9}{chapter.5}}
\@writefile{lof}{\addvspace {10\p@ }}
\@writefile{lot}{\addvspace {10\p@ }}
\@writefile{toc}{\contentsline {section}{\numberline {5.1}mi\discretionary {\unhbox \voidb@x \hbox {\relax \fontsize  {7}{8}\selectfont  $\leftarrow \joinrel  \rhook $}}{}{}R\discretionary {\unhbox \voidb@x \hbox {\relax \fontsize  {7}{8}\selectfont  $\leftarrow \joinrel  \rhook $}}{}{}Net.\discretionary {\unhbox \voidb@x \hbox {\relax \fontsize  {7}{8}\selectfont  $\leftarrow \joinrel  \rhook $}}{}{}base.\discretionary {\unhbox \voidb@x \hbox {\relax \fontsize  {7}{8}\selectfont  $\leftarrow \joinrel  \rhook $}}{}{}Data\discretionary {\unhbox \voidb@x \hbox {\relax \fontsize  {7}{8}\selectfont  $\leftarrow \joinrel  \rhook $}}{}{}Crawler Class Reference}{9}{section.5.1}}
\newlabel{classmi_r_net_1_1base_1_1_data_crawler}{{5.1}{9}{mi\+R\+Net.\+base.\+Data\+Crawler Class Reference}{section.5.1}{}}
\@writefile{toc}{\contentsline {subsection}{\numberline {5.1.1}Detailed Description}{9}{subsection.5.1.1}}
\@writefile{toc}{\contentsline {subsection}{\numberline {5.1.2}Member Function Documentation}{9}{subsection.5.1.2}}
\@writefile{toc}{\contentsline {subsubsection}{\numberline {5.1.2.1}count\discretionary {\unhbox \voidb@x \hbox {\relax \fontsize  {7}{8}\selectfont  $\leftarrow \joinrel  \rhook $}}{}{}A\discretionary {\unhbox \voidb@x \hbox {\relax \fontsize  {7}{8}\selectfont  $\leftarrow \joinrel  \rhook $}}{}{}G\discretionary {\unhbox \voidb@x \hbox {\relax \fontsize  {7}{8}\selectfont  $\leftarrow \joinrel  \rhook $}}{}{}O2\discretionary {\unhbox \voidb@x \hbox {\relax \fontsize  {7}{8}\selectfont  $\leftarrow \joinrel  \rhook $}}{}{}Not\discretionary {\unhbox \voidb@x \hbox {\relax \fontsize  {7}{8}\selectfont  $\leftarrow \joinrel  \rhook $}}{}{}Used\discretionary {\unhbox \voidb@x \hbox {\relax \fontsize  {7}{8}\selectfont  $\leftarrow \joinrel  \rhook $}}{}{}For\discretionary {\unhbox \voidb@x \hbox {\relax \fontsize  {7}{8}\selectfont  $\leftarrow \joinrel  \rhook $}}{}{}Mi\discretionary {\unhbox \voidb@x \hbox {\relax \fontsize  {7}{8}\selectfont  $\leftarrow \joinrel  \rhook $}}{}{}R132\discretionary {\unhbox \voidb@x \hbox {\relax \fontsize  {7}{8}\selectfont  $\leftarrow \joinrel  \rhook $}}{}{}And\discretionary {\unhbox \voidb@x \hbox {\relax \fontsize  {7}{8}\selectfont  $\leftarrow \joinrel  \rhook $}}{}{}Mi\discretionary {\unhbox \voidb@x \hbox {\relax \fontsize  {7}{8}\selectfont  $\leftarrow \joinrel  \rhook $}}{}{}R221}{9}{subsubsection.5.1.2.1}}
\newlabel{classmi_r_net_1_1base_1_1_data_crawler_a83260be6a6d89bc3701470488924edb4}{{5.1.2.1}{9}{count\+A\+G\+O2\+Not\+Used\+For\+Mi\+R132\+And\+Mi\+R221}{subsubsection.5.1.2.1}{}}
\@writefile{toc}{\contentsline {subsubsection}{\numberline {5.1.2.2}count\discretionary {\unhbox \voidb@x \hbox {\relax \fontsize  {7}{8}\selectfont  $\leftarrow \joinrel  \rhook $}}{}{}A\discretionary {\unhbox \voidb@x \hbox {\relax \fontsize  {7}{8}\selectfont  $\leftarrow \joinrel  \rhook $}}{}{}G\discretionary {\unhbox \voidb@x \hbox {\relax \fontsize  {7}{8}\selectfont  $\leftarrow \joinrel  \rhook $}}{}{}O2\discretionary {\unhbox \voidb@x \hbox {\relax \fontsize  {7}{8}\selectfont  $\leftarrow \joinrel  \rhook $}}{}{}Used\discretionary {\unhbox \voidb@x \hbox {\relax \fontsize  {7}{8}\selectfont  $\leftarrow \joinrel  \rhook $}}{}{}For\discretionary {\unhbox \voidb@x \hbox {\relax \fontsize  {7}{8}\selectfont  $\leftarrow \joinrel  \rhook $}}{}{}Mi\discretionary {\unhbox \voidb@x \hbox {\relax \fontsize  {7}{8}\selectfont  $\leftarrow \joinrel  \rhook $}}{}{}R132\discretionary {\unhbox \voidb@x \hbox {\relax \fontsize  {7}{8}\selectfont  $\leftarrow \joinrel  \rhook $}}{}{}And\discretionary {\unhbox \voidb@x \hbox {\relax \fontsize  {7}{8}\selectfont  $\leftarrow \joinrel  \rhook $}}{}{}Mi\discretionary {\unhbox \voidb@x \hbox {\relax \fontsize  {7}{8}\selectfont  $\leftarrow \joinrel  \rhook $}}{}{}R221}{9}{subsubsection.5.1.2.2}}
\newlabel{classmi_r_net_1_1base_1_1_data_crawler_a5c306d7e31574e01d2df3c4583f8fb04}{{5.1.2.2}{9}{count\+A\+G\+O2\+Used\+For\+Mi\+R132\+And\+Mi\+R221}{subsubsection.5.1.2.2}{}}
\@writefile{toc}{\contentsline {subsubsection}{\numberline {5.1.2.3}count\discretionary {\unhbox \voidb@x \hbox {\relax \fontsize  {7}{8}\selectfont  $\leftarrow \joinrel  \rhook $}}{}{}E\discretionary {\unhbox \voidb@x \hbox {\relax \fontsize  {7}{8}\selectfont  $\leftarrow \joinrel  \rhook $}}{}{}P300\discretionary {\unhbox \voidb@x \hbox {\relax \fontsize  {7}{8}\selectfont  $\leftarrow \joinrel  \rhook $}}{}{}Not\discretionary {\unhbox \voidb@x \hbox {\relax \fontsize  {7}{8}\selectfont  $\leftarrow \joinrel  \rhook $}}{}{}Used\discretionary {\unhbox \voidb@x \hbox {\relax \fontsize  {7}{8}\selectfont  $\leftarrow \joinrel  \rhook $}}{}{}For\discretionary {\unhbox \voidb@x \hbox {\relax \fontsize  {7}{8}\selectfont  $\leftarrow \joinrel  \rhook $}}{}{}C\discretionary {\unhbox \voidb@x \hbox {\relax \fontsize  {7}{8}\selectfont  $\leftarrow \joinrel  \rhook $}}{}{}R\discretionary {\unhbox \voidb@x \hbox {\relax \fontsize  {7}{8}\selectfont  $\leftarrow \joinrel  \rhook $}}{}{}E\discretionary {\unhbox \voidb@x \hbox {\relax \fontsize  {7}{8}\selectfont  $\leftarrow \joinrel  \rhook $}}{}{}B\discretionary {\unhbox \voidb@x \hbox {\relax \fontsize  {7}{8}\selectfont  $\leftarrow \joinrel  \rhook $}}{}{}Binding}{10}{subsubsection.5.1.2.3}}
\newlabel{classmi_r_net_1_1base_1_1_data_crawler_aee709097e67bd0dd74d80a29f4d51074}{{5.1.2.3}{10}{count\+E\+P300\+Not\+Used\+For\+C\+R\+E\+B\+Binding}{subsubsection.5.1.2.3}{}}
\@writefile{toc}{\contentsline {subsubsection}{\numberline {5.1.2.4}count\discretionary {\unhbox \voidb@x \hbox {\relax \fontsize  {7}{8}\selectfont  $\leftarrow \joinrel  \rhook $}}{}{}E\discretionary {\unhbox \voidb@x \hbox {\relax \fontsize  {7}{8}\selectfont  $\leftarrow \joinrel  \rhook $}}{}{}P300\discretionary {\unhbox \voidb@x \hbox {\relax \fontsize  {7}{8}\selectfont  $\leftarrow \joinrel  \rhook $}}{}{}Used\discretionary {\unhbox \voidb@x \hbox {\relax \fontsize  {7}{8}\selectfont  $\leftarrow \joinrel  \rhook $}}{}{}For\discretionary {\unhbox \voidb@x \hbox {\relax \fontsize  {7}{8}\selectfont  $\leftarrow \joinrel  \rhook $}}{}{}C\discretionary {\unhbox \voidb@x \hbox {\relax \fontsize  {7}{8}\selectfont  $\leftarrow \joinrel  \rhook $}}{}{}R\discretionary {\unhbox \voidb@x \hbox {\relax \fontsize  {7}{8}\selectfont  $\leftarrow \joinrel  \rhook $}}{}{}E\discretionary {\unhbox \voidb@x \hbox {\relax \fontsize  {7}{8}\selectfont  $\leftarrow \joinrel  \rhook $}}{}{}B\discretionary {\unhbox \voidb@x \hbox {\relax \fontsize  {7}{8}\selectfont  $\leftarrow \joinrel  \rhook $}}{}{}Binding}{10}{subsubsection.5.1.2.4}}
\newlabel{classmi_r_net_1_1base_1_1_data_crawler_abd27c8a6ecceb43642d4006cbaa6abbe}{{5.1.2.4}{10}{count\+E\+P300\+Used\+For\+C\+R\+E\+B\+Binding}{subsubsection.5.1.2.4}{}}
\@writefile{toc}{\contentsline {subsubsection}{\numberline {5.1.2.5}count\discretionary {\unhbox \voidb@x \hbox {\relax \fontsize  {7}{8}\selectfont  $\leftarrow \joinrel  \rhook $}}{}{}Phospho\discretionary {\unhbox \voidb@x \hbox {\relax \fontsize  {7}{8}\selectfont  $\leftarrow \joinrel  \rhook $}}{}{}C\discretionary {\unhbox \voidb@x \hbox {\relax \fontsize  {7}{8}\selectfont  $\leftarrow \joinrel  \rhook $}}{}{}R\discretionary {\unhbox \voidb@x \hbox {\relax \fontsize  {7}{8}\selectfont  $\leftarrow \joinrel  \rhook $}}{}{}E\discretionary {\unhbox \voidb@x \hbox {\relax \fontsize  {7}{8}\selectfont  $\leftarrow \joinrel  \rhook $}}{}{}B}{10}{subsubsection.5.1.2.5}}
\newlabel{classmi_r_net_1_1base_1_1_data_crawler_a739339130c5980a39cf3d5f5a774b5fc}{{5.1.2.5}{10}{count\+Phospho\+C\+R\+E\+B}{subsubsection.5.1.2.5}{}}
\@writefile{toc}{\contentsline {subsubsection}{\numberline {5.1.2.6}count\discretionary {\unhbox \voidb@x \hbox {\relax \fontsize  {7}{8}\selectfont  $\leftarrow \joinrel  \rhook $}}{}{}R\discretionary {\unhbox \voidb@x \hbox {\relax \fontsize  {7}{8}\selectfont  $\leftarrow \joinrel  \rhook $}}{}{}I\discretionary {\unhbox \voidb@x \hbox {\relax \fontsize  {7}{8}\selectfont  $\leftarrow \joinrel  \rhook $}}{}{}S\discretionary {\unhbox \voidb@x \hbox {\relax \fontsize  {7}{8}\selectfont  $\leftarrow \joinrel  \rhook $}}{}{}C}{10}{subsubsection.5.1.2.6}}
\newlabel{classmi_r_net_1_1base_1_1_data_crawler_ae4f8d853d170a94a0d5fac38f119ac89}{{5.1.2.6}{10}{count\+R\+I\+S\+C}{subsubsection.5.1.2.6}{}}
\@writefile{toc}{\contentsline {subsubsection}{\numberline {5.1.2.7}count\discretionary {\unhbox \voidb@x \hbox {\relax \fontsize  {7}{8}\selectfont  $\leftarrow \joinrel  \rhook $}}{}{}R\discretionary {\unhbox \voidb@x \hbox {\relax \fontsize  {7}{8}\selectfont  $\leftarrow \joinrel  \rhook $}}{}{}I\discretionary {\unhbox \voidb@x \hbox {\relax \fontsize  {7}{8}\selectfont  $\leftarrow \joinrel  \rhook $}}{}{}S\discretionary {\unhbox \voidb@x \hbox {\relax \fontsize  {7}{8}\selectfont  $\leftarrow \joinrel  \rhook $}}{}{}C132}{10}{subsubsection.5.1.2.7}}
\newlabel{classmi_r_net_1_1base_1_1_data_crawler_ac32310fd7664aaba1618796dab5865fe}{{5.1.2.7}{10}{count\+R\+I\+S\+C132}{subsubsection.5.1.2.7}{}}
\@writefile{toc}{\contentsline {subsubsection}{\numberline {5.1.2.8}count\discretionary {\unhbox \voidb@x \hbox {\relax \fontsize  {7}{8}\selectfont  $\leftarrow \joinrel  \rhook $}}{}{}R\discretionary {\unhbox \voidb@x \hbox {\relax \fontsize  {7}{8}\selectfont  $\leftarrow \joinrel  \rhook $}}{}{}I\discretionary {\unhbox \voidb@x \hbox {\relax \fontsize  {7}{8}\selectfont  $\leftarrow \joinrel  \rhook $}}{}{}S\discretionary {\unhbox \voidb@x \hbox {\relax \fontsize  {7}{8}\selectfont  $\leftarrow \joinrel  \rhook $}}{}{}C221}{10}{subsubsection.5.1.2.8}}
\newlabel{classmi_r_net_1_1base_1_1_data_crawler_aba4c92b5400888add88513891317d575}{{5.1.2.8}{10}{count\+R\+I\+S\+C221}{subsubsection.5.1.2.8}{}}
\gdef \PWST@i{1}
\@writefile{toc}{\contentsline {subsubsection}{\numberline {5.1.2.9}count\discretionary {\unhbox \voidb@x \hbox {\relax \fontsize  {7}{8}\selectfont  $\leftarrow \joinrel  \rhook $}}{}{}R\discretionary {\unhbox \voidb@x \hbox {\relax \fontsize  {7}{8}\selectfont  $\leftarrow \joinrel  \rhook $}}{}{}I\discretionary {\unhbox \voidb@x \hbox {\relax \fontsize  {7}{8}\selectfont  $\leftarrow \joinrel  \rhook $}}{}{}S\discretionary {\unhbox \voidb@x \hbox {\relax \fontsize  {7}{8}\selectfont  $\leftarrow \joinrel  \rhook $}}{}{}C\discretionary {\unhbox \voidb@x \hbox {\relax \fontsize  {7}{8}\selectfont  $\leftarrow \joinrel  \rhook $}}{}{}Used\discretionary {\unhbox \voidb@x \hbox {\relax \fontsize  {7}{8}\selectfont  $\leftarrow \joinrel  \rhook $}}{}{}For\discretionary {\unhbox \voidb@x \hbox {\relax \fontsize  {7}{8}\selectfont  $\leftarrow \joinrel  \rhook $}}{}{}E\discretionary {\unhbox \voidb@x \hbox {\relax \fontsize  {7}{8}\selectfont  $\leftarrow \joinrel  \rhook $}}{}{}P300\discretionary {\unhbox \voidb@x \hbox {\relax \fontsize  {7}{8}\selectfont  $\leftarrow \joinrel  \rhook $}}{}{}And\discretionary {\unhbox \voidb@x \hbox {\relax \fontsize  {7}{8}\selectfont  $\leftarrow \joinrel  \rhook $}}{}{}A\discretionary {\unhbox \voidb@x \hbox {\relax \fontsize  {7}{8}\selectfont  $\leftarrow \joinrel  \rhook $}}{}{}G\discretionary {\unhbox \voidb@x \hbox {\relax \fontsize  {7}{8}\selectfont  $\leftarrow \joinrel  \rhook $}}{}{}O2\discretionary {\unhbox \voidb@x \hbox {\relax \fontsize  {7}{8}\selectfont  $\leftarrow \joinrel  \rhook $}}{}{}Silencing}{11}{subsubsection.5.1.2.9}}
\newlabel{classmi_r_net_1_1base_1_1_data_crawler_acf1330bd744684ce9acb9f7022ad4786}{{5.1.2.9}{11}{count\+R\+I\+S\+C\+Used\+For\+E\+P300\+And\+A\+G\+O2\+Silencing}{subsubsection.5.1.2.9}{}}
\@writefile{toc}{\contentsline {section}{\numberline {5.2}mi\discretionary {\unhbox \voidb@x \hbox {\relax \fontsize  {7}{8}\selectfont  $\leftarrow \joinrel  \rhook $}}{}{}R\discretionary {\unhbox \voidb@x \hbox {\relax \fontsize  {7}{8}\selectfont  $\leftarrow \joinrel  \rhook $}}{}{}Net.\discretionary {\unhbox \voidb@x \hbox {\relax \fontsize  {7}{8}\selectfont  $\leftarrow \joinrel  \rhook $}}{}{}Foci Class Reference}{11}{section.5.2}}
\newlabel{classmi_r_net_1_1_foci}{{5.2}{11}{mi\+R\+Net.\+Foci Class Reference}{section.5.2}{}}
\@writefile{toc}{\contentsline {subsection}{\numberline {5.2.1}Detailed Description}{11}{subsection.5.2.1}}
\@writefile{toc}{\contentsline {subsection}{\numberline {5.2.2}Constructor \& Destructor Documentation}{11}{subsection.5.2.2}}
\@writefile{toc}{\contentsline {subsubsection}{\numberline {5.2.2.1}Foci}{11}{subsubsection.5.2.2.1}}
\newlabel{classmi_r_net_1_1_foci_af66c6309f795da8adf685d33e5d2deb2}{{5.2.2.1}{11}{Foci}{subsubsection.5.2.2.1}{}}
\@writefile{toc}{\contentsline {section}{\numberline {5.3}mi\discretionary {\unhbox \voidb@x \hbox {\relax \fontsize  {7}{8}\selectfont  $\leftarrow \joinrel  \rhook $}}{}{}R\discretionary {\unhbox \voidb@x \hbox {\relax \fontsize  {7}{8}\selectfont  $\leftarrow \joinrel  \rhook $}}{}{}Net.\discretionary {\unhbox \voidb@x \hbox {\relax \fontsize  {7}{8}\selectfont  $\leftarrow \joinrel  \rhook $}}{}{}agents.\discretionary {\unhbox \voidb@x \hbox {\relax \fontsize  {7}{8}\selectfont  $\leftarrow \joinrel  \rhook $}}{}{}mi\discretionary {\unhbox \voidb@x \hbox {\relax \fontsize  {7}{8}\selectfont  $\leftarrow \joinrel  \rhook $}}{}{}R132 Class Reference}{11}{section.5.3}}
\newlabel{classmi_r_net_1_1agents_1_1mi_r132}{{5.3}{11}{mi\+R\+Net.\+agents.\+mi\+R132 Class Reference}{section.5.3}{}}
\gdef \PWST@ii{1}
\@writefile{toc}{\contentsline {subsection}{\numberline {5.3.1}Detailed Description}{13}{subsection.5.3.1}}
\@writefile{toc}{\contentsline {subsection}{\numberline {5.3.2}Constructor \& Destructor Documentation}{13}{subsection.5.3.2}}
\@writefile{toc}{\contentsline {subsubsection}{\numberline {5.3.2.1}mi\discretionary {\unhbox \voidb@x \hbox {\relax \fontsize  {7}{8}\selectfont  $\leftarrow \joinrel  \rhook $}}{}{}R132}{13}{subsubsection.5.3.2.1}}
\newlabel{classmi_r_net_1_1agents_1_1mi_r132_ace5a51213d440404d6151fbe3d6cafbf}{{5.3.2.1}{13}{mi\+R132}{subsubsection.5.3.2.1}{}}
\@writefile{toc}{\contentsline {subsection}{\numberline {5.3.3}Member Function Documentation}{13}{subsection.5.3.3}}
\@writefile{toc}{\contentsline {subsubsection}{\numberline {5.3.3.1}activity}{13}{subsubsection.5.3.3.1}}
\newlabel{classmi_r_net_1_1agents_1_1mi_r132_a4431c9e97993d0231876944832c2cf7c}{{5.3.3.1}{13}{activity}{subsubsection.5.3.3.1}{}}
\@writefile{toc}{\contentsline {section}{\numberline {5.4}mi\discretionary {\unhbox \voidb@x \hbox {\relax \fontsize  {7}{8}\selectfont  $\leftarrow \joinrel  \rhook $}}{}{}R\discretionary {\unhbox \voidb@x \hbox {\relax \fontsize  {7}{8}\selectfont  $\leftarrow \joinrel  \rhook $}}{}{}Net.\discretionary {\unhbox \voidb@x \hbox {\relax \fontsize  {7}{8}\selectfont  $\leftarrow \joinrel  \rhook $}}{}{}agents.\discretionary {\unhbox \voidb@x \hbox {\relax \fontsize  {7}{8}\selectfont  $\leftarrow \joinrel  \rhook $}}{}{}mi\discretionary {\unhbox \voidb@x \hbox {\relax \fontsize  {7}{8}\selectfont  $\leftarrow \joinrel  \rhook $}}{}{}R221 Class Reference}{13}{section.5.4}}
\newlabel{classmi_r_net_1_1agents_1_1mi_r221}{{5.4}{13}{mi\+R\+Net.\+agents.\+mi\+R221 Class Reference}{section.5.4}{}}
\@writefile{toc}{\contentsline {subsection}{\numberline {5.4.1}Detailed Description}{13}{subsection.5.4.1}}
\@writefile{toc}{\contentsline {subsection}{\numberline {5.4.2}Constructor \& Destructor Documentation}{15}{subsection.5.4.2}}
\@writefile{toc}{\contentsline {subsubsection}{\numberline {5.4.2.1}mi\discretionary {\unhbox \voidb@x \hbox {\relax \fontsize  {7}{8}\selectfont  $\leftarrow \joinrel  \rhook $}}{}{}R221}{15}{subsubsection.5.4.2.1}}
\newlabel{classmi_r_net_1_1agents_1_1mi_r221_a0b0acef59b9fc5f2ace21525e01e0111}{{5.4.2.1}{15}{mi\+R221}{subsubsection.5.4.2.1}{}}
\gdef \PWST@iii{1}
\@writefile{toc}{\contentsline {subsection}{\numberline {5.4.3}Member Function Documentation}{16}{subsection.5.4.3}}
\@writefile{toc}{\contentsline {subsubsection}{\numberline {5.4.3.1}activity}{16}{subsubsection.5.4.3.1}}
\newlabel{classmi_r_net_1_1agents_1_1mi_r221_ac4904dd434164a0da68e7a8b5ab8a8d9}{{5.4.3.1}{16}{activity}{subsubsection.5.4.3.1}{}}
\@writefile{toc}{\contentsline {section}{\numberline {5.5}mi\discretionary {\unhbox \voidb@x \hbox {\relax \fontsize  {7}{8}\selectfont  $\leftarrow \joinrel  \rhook $}}{}{}R\discretionary {\unhbox \voidb@x \hbox {\relax \fontsize  {7}{8}\selectfont  $\leftarrow \joinrel  \rhook $}}{}{}Net.\discretionary {\unhbox \voidb@x \hbox {\relax \fontsize  {7}{8}\selectfont  $\leftarrow \joinrel  \rhook $}}{}{}mi\discretionary {\unhbox \voidb@x \hbox {\relax \fontsize  {7}{8}\selectfont  $\leftarrow \joinrel  \rhook $}}{}{}R\discretionary {\unhbox \voidb@x \hbox {\relax \fontsize  {7}{8}\selectfont  $\leftarrow \joinrel  \rhook $}}{}{}N\discretionary {\unhbox \voidb@x \hbox {\relax \fontsize  {7}{8}\selectfont  $\leftarrow \joinrel  \rhook $}}{}{}A Class Reference}{16}{section.5.5}}
\newlabel{classmi_r_net_1_1mi_r_n_a}{{5.5}{16}{mi\+R\+Net.\+mi\+R\+N\+A Class Reference}{section.5.5}{}}
\newlabel{classmi_r_net_1_1mi_r_n_a_a72cd18f1e3716eb5163b89fff56997f4}{{5.5}{16}{Public Attributes}{section*.11}{}}
\newlabel{classmi_r_net_1_1mi_r_n_a_a81dff933c1488e774ad11e0df56ca3b2}{{5.5}{16}{Protected Attributes}{section*.13}{}}
\newlabel{classmi_r_net_1_1mi_r_n_a_a73d3a92620edadc2635c731ca45399b8}{{5.5}{16}{Protected Attributes}{section*.13}{}}
\newlabel{classmi_r_net_1_1mi_r_n_a_a6486e5a23ddaa4eb0b7fe9bc2a47d897}{{5.5}{16}{Protected Attributes}{section*.13}{}}
\newlabel{classmi_r_net_1_1mi_r_n_a_a998333a7832d4446028057512e1dadf4}{{5.5}{16}{Protected Attributes}{section*.13}{}}
\newlabel{classmi_r_net_1_1mi_r_n_a_aa8aa8e7a879d76f1120928ee08238a16}{{5.5}{16}{Protected Attributes}{section*.13}{}}
\newlabel{classmi_r_net_1_1mi_r_n_a_ad5a80ca7dfe73334c84ec100bc575712}{{5.5}{16}{Protected Attributes}{section*.13}{}}
\newlabel{classmi_r_net_1_1mi_r_n_a_a05a9b06aeeee8e893b3c4862843f8e03}{{5.5}{16}{Protected Attributes}{section*.13}{}}
\newlabel{classmi_r_net_1_1mi_r_n_a_a72a68da3bd5203b9198fde565140f6fc}{{5.5}{16}{Protected Attributes}{section*.13}{}}
\newlabel{classmi_r_net_1_1mi_r_n_a_a223cbc0d01221fdf1d513264acdbda8e}{{5.5}{16}{Protected Attributes}{section*.13}{}}
\gdef \PWST@iv{1}
\@writefile{toc}{\contentsline {subsection}{\numberline {5.5.1}Detailed Description}{18}{subsection.5.5.1}}
\@writefile{toc}{\contentsline {subsection}{\numberline {5.5.2}Member Function Documentation}{18}{subsection.5.5.2}}
\@writefile{toc}{\contentsline {subsubsection}{\numberline {5.5.2.1}find\discretionary {\unhbox \voidb@x \hbox {\relax \fontsize  {7}{8}\selectfont  $\leftarrow \joinrel  \rhook $}}{}{}A\discretionary {\unhbox \voidb@x \hbox {\relax \fontsize  {7}{8}\selectfont  $\leftarrow \joinrel  \rhook $}}{}{}G\discretionary {\unhbox \voidb@x \hbox {\relax \fontsize  {7}{8}\selectfont  $\leftarrow \joinrel  \rhook $}}{}{}O2}{18}{subsubsection.5.5.2.1}}
\newlabel{classmi_r_net_1_1mi_r_n_a_a3ad6ca75e681cacebe65f8b247413dd2}{{5.5.2.1}{18}{find\+A\+G\+O2}{subsubsection.5.5.2.1}{}}
\@writefile{toc}{\contentsline {subsubsection}{\numberline {5.5.2.2}find\discretionary {\unhbox \voidb@x \hbox {\relax \fontsize  {7}{8}\selectfont  $\leftarrow \joinrel  \rhook $}}{}{}R\discretionary {\unhbox \voidb@x \hbox {\relax \fontsize  {7}{8}\selectfont  $\leftarrow \joinrel  \rhook $}}{}{}I\discretionary {\unhbox \voidb@x \hbox {\relax \fontsize  {7}{8}\selectfont  $\leftarrow \joinrel  \rhook $}}{}{}S\discretionary {\unhbox \voidb@x \hbox {\relax \fontsize  {7}{8}\selectfont  $\leftarrow \joinrel  \rhook $}}{}{}C}{18}{subsubsection.5.5.2.2}}
\newlabel{classmi_r_net_1_1mi_r_n_a_af141fad8682d660c69861e7bba23357b}{{5.5.2.2}{18}{find\+R\+I\+S\+C}{subsubsection.5.5.2.2}{}}
\@writefile{toc}{\contentsline {subsubsection}{\numberline {5.5.2.3}get\discretionary {\unhbox \voidb@x \hbox {\relax \fontsize  {7}{8}\selectfont  $\leftarrow \joinrel  \rhook $}}{}{}Target\discretionary {\unhbox \voidb@x \hbox {\relax \fontsize  {7}{8}\selectfont  $\leftarrow \joinrel  \rhook $}}{}{}A\discretionary {\unhbox \voidb@x \hbox {\relax \fontsize  {7}{8}\selectfont  $\leftarrow \joinrel  \rhook $}}{}{}G\discretionary {\unhbox \voidb@x \hbox {\relax \fontsize  {7}{8}\selectfont  $\leftarrow \joinrel  \rhook $}}{}{}O2}{18}{subsubsection.5.5.2.3}}
\newlabel{classmi_r_net_1_1mi_r_n_a_a6debbf34cb9c5ae34820d7ebf8c01af4}{{5.5.2.3}{18}{get\+Target\+A\+G\+O2}{subsubsection.5.5.2.3}{}}
\@writefile{toc}{\contentsline {subsubsection}{\numberline {5.5.2.4}mi\discretionary {\unhbox \voidb@x \hbox {\relax \fontsize  {7}{8}\selectfont  $\leftarrow \joinrel  \rhook $}}{}{}R\discretionary {\unhbox \voidb@x \hbox {\relax \fontsize  {7}{8}\selectfont  $\leftarrow \joinrel  \rhook $}}{}{}N\discretionary {\unhbox \voidb@x \hbox {\relax \fontsize  {7}{8}\selectfont  $\leftarrow \joinrel  \rhook $}}{}{}A\discretionary {\unhbox \voidb@x \hbox {\relax \fontsize  {7}{8}\selectfont  $\leftarrow \joinrel  \rhook $}}{}{}Activity}{19}{subsubsection.5.5.2.4}}
\newlabel{classmi_r_net_1_1mi_r_n_a_a8f5222eb3a43b40d1cb8a8836258bf22}{{5.5.2.4}{19}{mi\+R\+N\+A\+Activity}{subsubsection.5.5.2.4}{}}
\@writefile{toc}{\contentsline {subsubsection}{\numberline {5.5.2.5}mi\discretionary {\unhbox \voidb@x \hbox {\relax \fontsize  {7}{8}\selectfont  $\leftarrow \joinrel  \rhook $}}{}{}R\discretionary {\unhbox \voidb@x \hbox {\relax \fontsize  {7}{8}\selectfont  $\leftarrow \joinrel  \rhook $}}{}{}N\discretionary {\unhbox \voidb@x \hbox {\relax \fontsize  {7}{8}\selectfont  $\leftarrow \joinrel  \rhook $}}{}{}A\discretionary {\unhbox \voidb@x \hbox {\relax \fontsize  {7}{8}\selectfont  $\leftarrow \joinrel  \rhook $}}{}{}Maturation}{19}{subsubsection.5.5.2.5}}
\newlabel{classmi_r_net_1_1mi_r_n_a_a7dc37e3d708c68d6adc6d2f80f97bcaa}{{5.5.2.5}{19}{mi\+R\+N\+A\+Maturation}{subsubsection.5.5.2.5}{}}
\@writefile{toc}{\contentsline {subsubsection}{\numberline {5.5.2.6}move\discretionary {\unhbox \voidb@x \hbox {\relax \fontsize  {7}{8}\selectfont  $\leftarrow \joinrel  \rhook $}}{}{}Towards\discretionary {\unhbox \voidb@x \hbox {\relax \fontsize  {7}{8}\selectfont  $\leftarrow \joinrel  \rhook $}}{}{}A\discretionary {\unhbox \voidb@x \hbox {\relax \fontsize  {7}{8}\selectfont  $\leftarrow \joinrel  \rhook $}}{}{}G\discretionary {\unhbox \voidb@x \hbox {\relax \fontsize  {7}{8}\selectfont  $\leftarrow \joinrel  \rhook $}}{}{}O2}{19}{subsubsection.5.5.2.6}}
\newlabel{classmi_r_net_1_1mi_r_n_a_a23dd24ddbad277e49e871b1c7edce1b2}{{5.5.2.6}{19}{move\+Towards\+A\+G\+O2}{subsubsection.5.5.2.6}{}}
\@writefile{toc}{\contentsline {section}{\numberline {5.6}mi\discretionary {\unhbox \voidb@x \hbox {\relax \fontsize  {7}{8}\selectfont  $\leftarrow \joinrel  \rhook $}}{}{}R\discretionary {\unhbox \voidb@x \hbox {\relax \fontsize  {7}{8}\selectfont  $\leftarrow \joinrel  \rhook $}}{}{}Net.\discretionary {\unhbox \voidb@x \hbox {\relax \fontsize  {7}{8}\selectfont  $\leftarrow \joinrel  \rhook $}}{}{}mi\discretionary {\unhbox \voidb@x \hbox {\relax \fontsize  {7}{8}\selectfont  $\leftarrow \joinrel  \rhook $}}{}{}R\discretionary {\unhbox \voidb@x \hbox {\relax \fontsize  {7}{8}\selectfont  $\leftarrow \joinrel  \rhook $}}{}{}Net\discretionary {\unhbox \voidb@x \hbox {\relax \fontsize  {7}{8}\selectfont  $\leftarrow \joinrel  \rhook $}}{}{}Builder Class Reference}{19}{section.5.6}}
\newlabel{classmi_r_net_1_1mi_r_net_builder}{{5.6}{19}{mi\+R\+Net.\+mi\+R\+Net\+Builder Class Reference}{section.5.6}{}}
\newlabel{classmi_r_net_1_1mi_r_net_builder_a5fb5428ba6d698485ab6154399799975}{{5.6}{19}{Static Public Attributes}{section*.16}{}}
\@writefile{toc}{\contentsline {subsection}{\numberline {5.6.1}Detailed Description}{19}{subsection.5.6.1}}
\@writefile{toc}{\contentsline {subsection}{\numberline {5.6.2}Member Function Documentation}{22}{subsection.5.6.2}}
\@writefile{toc}{\contentsline {subsubsection}{\numberline {5.6.2.1}build}{22}{subsubsection.5.6.2.1}}
\newlabel{classmi_r_net_1_1mi_r_net_builder_af7714bd8580bd7664adc6df4ef8bc2ef}{{5.6.2.1}{22}{build}{subsubsection.5.6.2.1}{}}
\@writefile{toc}{\contentsline {section}{\numberline {5.7}mi\discretionary {\unhbox \voidb@x \hbox {\relax \fontsize  {7}{8}\selectfont  $\leftarrow \joinrel  \rhook $}}{}{}R\discretionary {\unhbox \voidb@x \hbox {\relax \fontsize  {7}{8}\selectfont  $\leftarrow \joinrel  \rhook $}}{}{}Net.\discretionary {\unhbox \voidb@x \hbox {\relax \fontsize  {7}{8}\selectfont  $\leftarrow \joinrel  \rhook $}}{}{}Molecule Class Reference}{22}{section.5.7}}
\newlabel{classmi_r_net_1_1_molecule}{{5.7}{22}{mi\+R\+Net.\+Molecule Class Reference}{section.5.7}{}}
\newlabel{classmi_r_net_1_1_molecule_a4c256cfe59deb1cb7c2626462885a3fa}{{5.7}{22}{Public Attributes}{section*.18}{}}
\newlabel{classmi_r_net_1_1_molecule_a25d099b763e251d7305f1de2124a0cff}{{5.7}{22}{Public Attributes}{section*.18}{}}
\newlabel{classmi_r_net_1_1_molecule_ab909aed38da2712eac19e359489173bd}{{5.7}{22}{Public Attributes}{section*.18}{}}
\newlabel{classmi_r_net_1_1_molecule_a2792f9bca7b6298cc2a24b8a8c4a2d4f}{{5.7}{22}{Static Public Attributes}{section*.19}{}}
\newlabel{classmi_r_net_1_1_molecule_a7201ad64eca858c04bba453eb40b1786}{{5.7}{22}{Protected Attributes}{section*.20}{}}
\newlabel{classmi_r_net_1_1_molecule_aab0878d6f170ce416965a760051a880f}{{5.7}{22}{Protected Attributes}{section*.20}{}}
\newlabel{classmi_r_net_1_1_molecule_a0379defb05cc9e4b5b75f38dca8a57e4}{{5.7}{22}{Protected Attributes}{section*.20}{}}
\newlabel{classmi_r_net_1_1_molecule_a2a4e2a6cdda3df38356d58b582a3ef2b}{{5.7}{22}{Protected Attributes}{section*.20}{}}
\newlabel{classmi_r_net_1_1_molecule_a763ceb48f33a1724685f282e91ec12c2}{{5.7}{22}{Protected Attributes}{section*.20}{}}
\newlabel{classmi_r_net_1_1_molecule_a37da1ea997573e1e5db49614244b71c4}{{5.7}{22}{Private Attributes}{section*.21}{}}
\newlabel{classmi_r_net_1_1_molecule_ae9fe1eada869ab5d219bbe0e7f6b7466}{{5.7}{22}{Private Attributes}{section*.21}{}}
\newlabel{classmi_r_net_1_1_molecule_a937617f9d078806e243a537e35a656c8}{{5.7}{22}{Private Attributes}{section*.21}{}}
\newlabel{classmi_r_net_1_1_molecule_aa2368766b21a7a65898a7f07fb85d99a}{{5.7}{22}{Private Attributes}{section*.21}{}}
\gdef \PWST@v{1}
\gdef \PWST@vi{1}
\@writefile{toc}{\contentsline {subsection}{\numberline {5.7.1}Detailed Description}{23}{subsection.5.7.1}}
\@writefile{toc}{\contentsline {subsection}{\numberline {5.7.2}Member Function Documentation}{23}{subsection.5.7.2}}
\@writefile{toc}{\contentsline {subsubsection}{\numberline {5.7.2.1}check\discretionary {\unhbox \voidb@x \hbox {\relax \fontsize  {7}{8}\selectfont  $\leftarrow \joinrel  \rhook $}}{}{}Life\discretionary {\unhbox \voidb@x \hbox {\relax \fontsize  {7}{8}\selectfont  $\leftarrow \joinrel  \rhook $}}{}{}Span}{23}{subsubsection.5.7.2.1}}
\newlabel{classmi_r_net_1_1_molecule_a00b4646f0a19c733dd85695bcaae96de}{{5.7.2.1}{23}{check\+Life\+Span}{subsubsection.5.7.2.1}{}}
\@writefile{toc}{\contentsline {subsubsection}{\numberline {5.7.2.2}find\discretionary {\unhbox \voidb@x \hbox {\relax \fontsize  {7}{8}\selectfont  $\leftarrow \joinrel  \rhook $}}{}{}New\discretionary {\unhbox \voidb@x \hbox {\relax \fontsize  {7}{8}\selectfont  $\leftarrow \joinrel  \rhook $}}{}{}Location\discretionary {\unhbox \voidb@x \hbox {\relax \fontsize  {7}{8}\selectfont  $\leftarrow \joinrel  \rhook $}}{}{}By\discretionary {\unhbox \voidb@x \hbox {\relax \fontsize  {7}{8}\selectfont  $\leftarrow \joinrel  \rhook $}}{}{}Directed\discretionary {\unhbox \voidb@x \hbox {\relax \fontsize  {7}{8}\selectfont  $\leftarrow \joinrel  \rhook $}}{}{}Movement}{23}{subsubsection.5.7.2.2}}
\newlabel{classmi_r_net_1_1_molecule_a00e49f6439f76d2f79fe2ac2261299bb}{{5.7.2.2}{23}{find\+New\+Location\+By\+Directed\+Movement}{subsubsection.5.7.2.2}{}}
\@writefile{toc}{\contentsline {subsubsection}{\numberline {5.7.2.3}get\discretionary {\unhbox \voidb@x \hbox {\relax \fontsize  {7}{8}\selectfont  $\leftarrow \joinrel  \rhook $}}{}{}Promoter}{23}{subsubsection.5.7.2.3}}
\newlabel{classmi_r_net_1_1_molecule_a05bc33182e332151f7805b7296ad7a78}{{5.7.2.3}{23}{get\+Promoter}{subsubsection.5.7.2.3}{}}
\@writefile{toc}{\contentsline {subsubsection}{\numberline {5.7.2.4}located\discretionary {\unhbox \voidb@x \hbox {\relax \fontsize  {7}{8}\selectfont  $\leftarrow \joinrel  \rhook $}}{}{}In\discretionary {\unhbox \voidb@x \hbox {\relax \fontsize  {7}{8}\selectfont  $\leftarrow \joinrel  \rhook $}}{}{}Nucleus}{23}{subsubsection.5.7.2.4}}
\newlabel{classmi_r_net_1_1_molecule_a37901e8e7790bce2ac7ba5a7958b4f4d}{{5.7.2.4}{23}{located\+In\+Nucleus}{subsubsection.5.7.2.4}{}}
\gdef \PWST@vii{1}
\gdef \PWST@viii{1}
\@writefile{toc}{\contentsline {subsubsection}{\numberline {5.7.2.5}perform\discretionary {\unhbox \voidb@x \hbox {\relax \fontsize  {7}{8}\selectfont  $\leftarrow \joinrel  \rhook $}}{}{}Over\discretionary {\unhbox \voidb@x \hbox {\relax \fontsize  {7}{8}\selectfont  $\leftarrow \joinrel  \rhook $}}{}{}Time\discretionary {\unhbox \voidb@x \hbox {\relax \fontsize  {7}{8}\selectfont  $\leftarrow \joinrel  \rhook $}}{}{}Action}{25}{subsubsection.5.7.2.5}}
\newlabel{classmi_r_net_1_1_molecule_af2cc1cd74b1775f12716e6c1301d6f17}{{5.7.2.5}{25}{perform\+Over\+Time\+Action}{subsubsection.5.7.2.5}{}}
\@writefile{toc}{\contentsline {section}{\numberline {5.8}mi\discretionary {\unhbox \voidb@x \hbox {\relax \fontsize  {7}{8}\selectfont  $\leftarrow \joinrel  \rhook $}}{}{}R\discretionary {\unhbox \voidb@x \hbox {\relax \fontsize  {7}{8}\selectfont  $\leftarrow \joinrel  \rhook $}}{}{}Net.\discretionary {\unhbox \voidb@x \hbox {\relax \fontsize  {7}{8}\selectfont  $\leftarrow \joinrel  \rhook $}}{}{}base.\discretionary {\unhbox \voidb@x \hbox {\relax \fontsize  {7}{8}\selectfont  $\leftarrow \joinrel  \rhook $}}{}{}Molecule\discretionary {\unhbox \voidb@x \hbox {\relax \fontsize  {7}{8}\selectfont  $\leftarrow \joinrel  \rhook $}}{}{}Adder$<$ Object $>$ Class Reference}{25}{section.5.8}}
\newlabel{classmi_r_net_1_1base_1_1_molecule_adder_3_01_object_01_4}{{5.8}{25}{mi\+R\+Net.\+base.\+Molecule\+Adder$<$ Object $>$ Class Reference}{section.5.8}{}}
\@writefile{toc}{\contentsline {subsection}{\numberline {5.8.1}Detailed Description}{25}{subsection.5.8.1}}
\gdef \PWST@ix{1}
\gdef \PWST@x{1}
\gdef \PWST@xi{1}
\@writefile{toc}{\contentsline {subsection}{\numberline {5.8.2}Member Function Documentation}{28}{subsection.5.8.2}}
\@writefile{toc}{\contentsline {subsubsection}{\numberline {5.8.2.1}add}{28}{subsubsection.5.8.2.1}}
\newlabel{classmi_r_net_1_1base_1_1_molecule_adder_3_01_object_01_4_aa7bf14886a00af19edeb88a5555cb8a6}{{5.8.2.1}{28}{add}{subsubsection.5.8.2.1}{}}
\@writefile{toc}{\contentsline {subsubsection}{\numberline {5.8.2.2}find\discretionary {\unhbox \voidb@x \hbox {\relax \fontsize  {7}{8}\selectfont  $\leftarrow \joinrel  \rhook $}}{}{}Location\discretionary {\unhbox \voidb@x \hbox {\relax \fontsize  {7}{8}\selectfont  $\leftarrow \joinrel  \rhook $}}{}{}In\discretionary {\unhbox \voidb@x \hbox {\relax \fontsize  {7}{8}\selectfont  $\leftarrow \joinrel  \rhook $}}{}{}Cytoplasm}{28}{subsubsection.5.8.2.2}}
\newlabel{classmi_r_net_1_1base_1_1_molecule_adder_3_01_object_01_4_a028b88dd1e7d52a2001528021fddca08}{{5.8.2.2}{28}{find\+Location\+In\+Cytoplasm}{subsubsection.5.8.2.2}{}}
\@writefile{toc}{\contentsline {subsubsection}{\numberline {5.8.2.3}find\discretionary {\unhbox \voidb@x \hbox {\relax \fontsize  {7}{8}\selectfont  $\leftarrow \joinrel  \rhook $}}{}{}Location\discretionary {\unhbox \voidb@x \hbox {\relax \fontsize  {7}{8}\selectfont  $\leftarrow \joinrel  \rhook $}}{}{}In\discretionary {\unhbox \voidb@x \hbox {\relax \fontsize  {7}{8}\selectfont  $\leftarrow \joinrel  \rhook $}}{}{}Nucleus}{28}{subsubsection.5.8.2.3}}
\newlabel{classmi_r_net_1_1base_1_1_molecule_adder_3_01_object_01_4_a4806c7ba02f99c987d1bc0f63d60c624}{{5.8.2.3}{28}{find\+Location\+In\+Nucleus}{subsubsection.5.8.2.3}{}}
\@writefile{toc}{\contentsline {section}{\numberline {5.9}mi\discretionary {\unhbox \voidb@x \hbox {\relax \fontsize  {7}{8}\selectfont  $\leftarrow \joinrel  \rhook $}}{}{}R\discretionary {\unhbox \voidb@x \hbox {\relax \fontsize  {7}{8}\selectfont  $\leftarrow \joinrel  \rhook $}}{}{}Net.\discretionary {\unhbox \voidb@x \hbox {\relax \fontsize  {7}{8}\selectfont  $\leftarrow \joinrel  \rhook $}}{}{}m\discretionary {\unhbox \voidb@x \hbox {\relax \fontsize  {7}{8}\selectfont  $\leftarrow \joinrel  \rhook $}}{}{}R\discretionary {\unhbox \voidb@x \hbox {\relax \fontsize  {7}{8}\selectfont  $\leftarrow \joinrel  \rhook $}}{}{}N\discretionary {\unhbox \voidb@x \hbox {\relax \fontsize  {7}{8}\selectfont  $\leftarrow \joinrel  \rhook $}}{}{}A Class Reference}{28}{section.5.9}}
\newlabel{classmi_r_net_1_1m_r_n_a}{{5.9}{28}{mi\+R\+Net.\+m\+R\+N\+A Class Reference}{section.5.9}{}}
\newlabel{classmi_r_net_1_1m_r_n_a_a64666209860104cf0ad6db47bb8eb1c3}{{5.9}{28}{Public Member Functions}{section*.24}{}}
\newlabel{classmi_r_net_1_1m_r_n_a_ad8c4d4f6fdf3bc47a23e76f37fcac4e7}{{5.9}{30}{Public Attributes}{section*.25}{}}
\newlabel{classmi_r_net_1_1m_r_n_a_a1190bd05aa357f55c131c57ac4f6c7a2}{{5.9}{30}{Protected Attributes}{section*.27}{}}
\newlabel{classmi_r_net_1_1m_r_n_a_a5f92c08aa3eed5c2c8e2228d4774e4af}{{5.9}{30}{Protected Attributes}{section*.27}{}}
\newlabel{classmi_r_net_1_1m_r_n_a_a5a519f0375f0b7ab7b318b87262f83f6}{{5.9}{30}{Protected Attributes}{section*.27}{}}
\newlabel{classmi_r_net_1_1m_r_n_a_a741601510ae01e0611e39d4918f87109}{{5.9}{30}{Protected Attributes}{section*.27}{}}
\newlabel{classmi_r_net_1_1m_r_n_a_adac7a28eb82b1326ee1cf3a1d104dd36}{{5.9}{30}{Protected Attributes}{section*.27}{}}
\newlabel{classmi_r_net_1_1m_r_n_a_a54daf334308f1e8fc1b92d79e73d427c}{{5.9}{30}{Protected Attributes}{section*.27}{}}
\newlabel{classmi_r_net_1_1m_r_n_a_ab99d4884ac1df9d240409101bfd3c0bb}{{5.9}{30}{Protected Attributes}{section*.27}{}}
\newlabel{classmi_r_net_1_1m_r_n_a_ae1043c39356faa9a6da52c5aa70540f2}{{5.9}{30}{Protected Attributes}{section*.27}{}}
\newlabel{classmi_r_net_1_1m_r_n_a_a7782fd98445ee7672d70b561ac112259}{{5.9}{30}{Protected Attributes}{section*.27}{}}
\newlabel{classmi_r_net_1_1m_r_n_a_a201c48b7327db3ecba5f2f10b77be65e}{{5.9}{30}{Protected Attributes}{section*.27}{}}
\newlabel{classmi_r_net_1_1m_r_n_a_a32479e83342136431f20fd90cbfe204c}{{5.9}{30}{Protected Attributes}{section*.27}{}}
\newlabel{classmi_r_net_1_1m_r_n_a_a426d68d80418e3758500e8fa04de547f}{{5.9}{30}{Protected Attributes}{section*.27}{}}
\newlabel{classmi_r_net_1_1m_r_n_a_a3b14bf4e2747be60c9600ffc357f1170}{{5.9}{30}{Protected Attributes}{section*.27}{}}
\@writefile{toc}{\contentsline {subsection}{\numberline {5.9.1}Detailed Description}{30}{subsection.5.9.1}}
\@writefile{toc}{\contentsline {subsection}{\numberline {5.9.2}Member Function Documentation}{30}{subsection.5.9.2}}
\@writefile{toc}{\contentsline {subsubsection}{\numberline {5.9.2.1}find\discretionary {\unhbox \voidb@x \hbox {\relax \fontsize  {7}{8}\selectfont  $\leftarrow \joinrel  \rhook $}}{}{}Ribosome}{30}{subsubsection.5.9.2.1}}
\newlabel{classmi_r_net_1_1m_r_n_a_a35376f0e6567d932c1fd86158c84f0cc}{{5.9.2.1}{30}{find\+Ribosome}{subsubsection.5.9.2.1}{}}
\gdef \PWST@xii{1}
\gdef \PWST@xiii{1}
\@writefile{toc}{\contentsline {subsubsection}{\numberline {5.9.2.2}get\discretionary {\unhbox \voidb@x \hbox {\relax \fontsize  {7}{8}\selectfont  $\leftarrow \joinrel  \rhook $}}{}{}Bound\discretionary {\unhbox \voidb@x \hbox {\relax \fontsize  {7}{8}\selectfont  $\leftarrow \joinrel  \rhook $}}{}{}By\discretionary {\unhbox \voidb@x \hbox {\relax \fontsize  {7}{8}\selectfont  $\leftarrow \joinrel  \rhook $}}{}{}R\discretionary {\unhbox \voidb@x \hbox {\relax \fontsize  {7}{8}\selectfont  $\leftarrow \joinrel  \rhook $}}{}{}I\discretionary {\unhbox \voidb@x \hbox {\relax \fontsize  {7}{8}\selectfont  $\leftarrow \joinrel  \rhook $}}{}{}S\discretionary {\unhbox \voidb@x \hbox {\relax \fontsize  {7}{8}\selectfont  $\leftarrow \joinrel  \rhook $}}{}{}C}{31}{subsubsection.5.9.2.2}}
\newlabel{classmi_r_net_1_1m_r_n_a_a6106ebe1746d8a9d8e92ab9a958642c8}{{5.9.2.2}{31}{get\+Bound\+By\+R\+I\+S\+C}{subsubsection.5.9.2.2}{}}
\@writefile{toc}{\contentsline {subsubsection}{\numberline {5.9.2.3}get\discretionary {\unhbox \voidb@x \hbox {\relax \fontsize  {7}{8}\selectfont  $\leftarrow \joinrel  \rhook $}}{}{}Entered\discretionary {\unhbox \voidb@x \hbox {\relax \fontsize  {7}{8}\selectfont  $\leftarrow \joinrel  \rhook $}}{}{}Translation}{31}{subsubsection.5.9.2.3}}
\newlabel{classmi_r_net_1_1m_r_n_a_a69ee212827bb54e3441d86f22611f5f5}{{5.9.2.3}{31}{get\+Entered\+Translation}{subsubsection.5.9.2.3}{}}
\@writefile{toc}{\contentsline {subsubsection}{\numberline {5.9.2.4}get\discretionary {\unhbox \voidb@x \hbox {\relax \fontsize  {7}{8}\selectfont  $\leftarrow \joinrel  \rhook $}}{}{}In\discretionary {\unhbox \voidb@x \hbox {\relax \fontsize  {7}{8}\selectfont  $\leftarrow \joinrel  \rhook $}}{}{}Cytoplasm}{31}{subsubsection.5.9.2.4}}
\newlabel{classmi_r_net_1_1m_r_n_a_aaf48ceca0a793788cf5b996475d9eb20}{{5.9.2.4}{31}{get\+In\+Cytoplasm}{subsubsection.5.9.2.4}{}}
\@writefile{toc}{\contentsline {subsubsection}{\numberline {5.9.2.5}locate\discretionary {\unhbox \voidb@x \hbox {\relax \fontsize  {7}{8}\selectfont  $\leftarrow \joinrel  \rhook $}}{}{}Foci}{31}{subsubsection.5.9.2.5}}
\newlabel{classmi_r_net_1_1m_r_n_a_a5aa40d71bd69406e75a96b7ec8c36b96}{{5.9.2.5}{31}{locate\+Foci}{subsubsection.5.9.2.5}{}}
\@writefile{toc}{\contentsline {subsubsection}{\numberline {5.9.2.6}move\discretionary {\unhbox \voidb@x \hbox {\relax \fontsize  {7}{8}\selectfont  $\leftarrow \joinrel  \rhook $}}{}{}Towards\discretionary {\unhbox \voidb@x \hbox {\relax \fontsize  {7}{8}\selectfont  $\leftarrow \joinrel  \rhook $}}{}{}Foci}{31}{subsubsection.5.9.2.6}}
\newlabel{classmi_r_net_1_1m_r_n_a_ad912535fe316da09a45a6a2ec7477694}{{5.9.2.6}{31}{move\+Towards\+Foci}{subsubsection.5.9.2.6}{}}
\@writefile{toc}{\contentsline {subsubsection}{\numberline {5.9.2.7}move\discretionary {\unhbox \voidb@x \hbox {\relax \fontsize  {7}{8}\selectfont  $\leftarrow \joinrel  \rhook $}}{}{}Towards\discretionary {\unhbox \voidb@x \hbox {\relax \fontsize  {7}{8}\selectfont  $\leftarrow \joinrel  \rhook $}}{}{}Ribosome}{33}{subsubsection.5.9.2.7}}
\newlabel{classmi_r_net_1_1m_r_n_a_a5d8cb1d17eab654b6119dd98a6a7a16e}{{5.9.2.7}{33}{move\+Towards\+Ribosome}{subsubsection.5.9.2.7}{}}
\@writefile{toc}{\contentsline {subsubsection}{\numberline {5.9.2.8}m\discretionary {\unhbox \voidb@x \hbox {\relax \fontsize  {7}{8}\selectfont  $\leftarrow \joinrel  \rhook $}}{}{}R\discretionary {\unhbox \voidb@x \hbox {\relax \fontsize  {7}{8}\selectfont  $\leftarrow \joinrel  \rhook $}}{}{}N\discretionary {\unhbox \voidb@x \hbox {\relax \fontsize  {7}{8}\selectfont  $\leftarrow \joinrel  \rhook $}}{}{}A\discretionary {\unhbox \voidb@x \hbox {\relax \fontsize  {7}{8}\selectfont  $\leftarrow \joinrel  \rhook $}}{}{}Activity}{33}{subsubsection.5.9.2.8}}
\newlabel{classmi_r_net_1_1m_r_n_a_a91c13896ef765371bfe76a2bb3718617}{{5.9.2.8}{33}{m\+R\+N\+A\+Activity}{subsubsection.5.9.2.8}{}}
\@writefile{toc}{\contentsline {subsubsection}{\numberline {5.9.2.9}released\discretionary {\unhbox \voidb@x \hbox {\relax \fontsize  {7}{8}\selectfont  $\leftarrow \joinrel  \rhook $}}{}{}From\discretionary {\unhbox \voidb@x \hbox {\relax \fontsize  {7}{8}\selectfont  $\leftarrow \joinrel  \rhook $}}{}{}Ribosome}{33}{subsubsection.5.9.2.9}}
\newlabel{classmi_r_net_1_1m_r_n_a_a3f6f99ef677e70373d9f764a433bc157}{{5.9.2.9}{33}{released\+From\+Ribosome}{subsubsection.5.9.2.9}{}}
\@writefile{toc}{\contentsline {subsubsection}{\numberline {5.9.2.10}R\discretionary {\unhbox \voidb@x \hbox {\relax \fontsize  {7}{8}\selectfont  $\leftarrow \joinrel  \rhook $}}{}{}I\discretionary {\unhbox \voidb@x \hbox {\relax \fontsize  {7}{8}\selectfont  $\leftarrow \joinrel  \rhook $}}{}{}S\discretionary {\unhbox \voidb@x \hbox {\relax \fontsize  {7}{8}\selectfont  $\leftarrow \joinrel  \rhook $}}{}{}C\discretionary {\unhbox \voidb@x \hbox {\relax \fontsize  {7}{8}\selectfont  $\leftarrow \joinrel  \rhook $}}{}{}Binding}{33}{subsubsection.5.9.2.10}}
\newlabel{classmi_r_net_1_1m_r_n_a_a8fc5c4b6750a6fa6dd025d18fc070aa4}{{5.9.2.10}{33}{R\+I\+S\+C\+Binding}{subsubsection.5.9.2.10}{}}
\@writefile{toc}{\contentsline {subsubsection}{\numberline {5.9.2.11}R\discretionary {\unhbox \voidb@x \hbox {\relax \fontsize  {7}{8}\selectfont  $\leftarrow \joinrel  \rhook $}}{}{}I\discretionary {\unhbox \voidb@x \hbox {\relax \fontsize  {7}{8}\selectfont  $\leftarrow \joinrel  \rhook $}}{}{}S\discretionary {\unhbox \voidb@x \hbox {\relax \fontsize  {7}{8}\selectfont  $\leftarrow \joinrel  \rhook $}}{}{}C\discretionary {\unhbox \voidb@x \hbox {\relax \fontsize  {7}{8}\selectfont  $\leftarrow \joinrel  \rhook $}}{}{}Dissociation}{33}{subsubsection.5.9.2.11}}
\newlabel{classmi_r_net_1_1m_r_n_a_ad748536aca3ba13b9a2453fabc78deaf}{{5.9.2.11}{33}{R\+I\+S\+C\+Dissociation}{subsubsection.5.9.2.11}{}}
\@writefile{toc}{\contentsline {subsubsection}{\numberline {5.9.2.12}try\discretionary {\unhbox \voidb@x \hbox {\relax \fontsize  {7}{8}\selectfont  $\leftarrow \joinrel  \rhook $}}{}{}To\discretionary {\unhbox \voidb@x \hbox {\relax \fontsize  {7}{8}\selectfont  $\leftarrow \joinrel  \rhook $}}{}{}Enter\discretionary {\unhbox \voidb@x \hbox {\relax \fontsize  {7}{8}\selectfont  $\leftarrow \joinrel  \rhook $}}{}{}Translation}{33}{subsubsection.5.9.2.12}}
\newlabel{classmi_r_net_1_1m_r_n_a_a6c346d06bff357a3475b7ec20d6d3804}{{5.9.2.12}{33}{try\+To\+Enter\+Translation}{subsubsection.5.9.2.12}{}}
\@writefile{toc}{\contentsline {section}{\numberline {5.10}mi\discretionary {\unhbox \voidb@x \hbox {\relax \fontsize  {7}{8}\selectfont  $\leftarrow \joinrel  \rhook $}}{}{}R\discretionary {\unhbox \voidb@x \hbox {\relax \fontsize  {7}{8}\selectfont  $\leftarrow \joinrel  \rhook $}}{}{}Net.\discretionary {\unhbox \voidb@x \hbox {\relax \fontsize  {7}{8}\selectfont  $\leftarrow \joinrel  \rhook $}}{}{}agents.\discretionary {\unhbox \voidb@x \hbox {\relax \fontsize  {7}{8}\selectfont  $\leftarrow \joinrel  \rhook $}}{}{}m\discretionary {\unhbox \voidb@x \hbox {\relax \fontsize  {7}{8}\selectfont  $\leftarrow \joinrel  \rhook $}}{}{}R\discretionary {\unhbox \voidb@x \hbox {\relax \fontsize  {7}{8}\selectfont  $\leftarrow \joinrel  \rhook $}}{}{}N\discretionary {\unhbox \voidb@x \hbox {\relax \fontsize  {7}{8}\selectfont  $\leftarrow \joinrel  \rhook $}}{}{}A\discretionary {\unhbox \voidb@x \hbox {\relax \fontsize  {7}{8}\selectfont  $\leftarrow \joinrel  \rhook $}}{}{}\_\discretionary {\unhbox \voidb@x \hbox {\relax \fontsize  {7}{8}\selectfont  $\leftarrow \joinrel  \rhook $}}{}{}\discretionary {\unhbox \voidb@x \hbox {\relax \fontsize  {7}{8}\selectfont  $\leftarrow \joinrel  \rhook $}}{}{}A\discretionary {\unhbox \voidb@x \hbox {\relax \fontsize  {7}{8}\selectfont  $\leftarrow \joinrel  \rhook $}}{}{}G\discretionary {\unhbox \voidb@x \hbox {\relax \fontsize  {7}{8}\selectfont  $\leftarrow \joinrel  \rhook $}}{}{}O2 Class Reference}{33}{section.5.10}}
\newlabel{classmi_r_net_1_1agents_1_1m_r_n_a___a_g_o2}{{5.10}{33}{mi\+R\+Net.\+agents.\+m\+R\+N\+A\+\_\+\+A\+G\+O2 Class Reference}{section.5.10}{}}
\newlabel{classmi_r_net_1_1agents_1_1m_r_n_a___a_g_o2_a579b60b8a62d1fade73d85bc90e88f0e}{{5.10}{33}{Protected Attributes}{section*.30}{}}
\gdef \PWST@xiv{1}
\@writefile{toc}{\contentsline {subsection}{\numberline {5.10.1}Detailed Description}{36}{subsection.5.10.1}}
\@writefile{toc}{\contentsline {subsection}{\numberline {5.10.2}Constructor \& Destructor Documentation}{36}{subsection.5.10.2}}
\@writefile{toc}{\contentsline {subsubsection}{\numberline {5.10.2.1}m\discretionary {\unhbox \voidb@x \hbox {\relax \fontsize  {7}{8}\selectfont  $\leftarrow \joinrel  \rhook $}}{}{}R\discretionary {\unhbox \voidb@x \hbox {\relax \fontsize  {7}{8}\selectfont  $\leftarrow \joinrel  \rhook $}}{}{}N\discretionary {\unhbox \voidb@x \hbox {\relax \fontsize  {7}{8}\selectfont  $\leftarrow \joinrel  \rhook $}}{}{}A\discretionary {\unhbox \voidb@x \hbox {\relax \fontsize  {7}{8}\selectfont  $\leftarrow \joinrel  \rhook $}}{}{}\_\discretionary {\unhbox \voidb@x \hbox {\relax \fontsize  {7}{8}\selectfont  $\leftarrow \joinrel  \rhook $}}{}{}\discretionary {\unhbox \voidb@x \hbox {\relax \fontsize  {7}{8}\selectfont  $\leftarrow \joinrel  \rhook $}}{}{}A\discretionary {\unhbox \voidb@x \hbox {\relax \fontsize  {7}{8}\selectfont  $\leftarrow \joinrel  \rhook $}}{}{}G\discretionary {\unhbox \voidb@x \hbox {\relax \fontsize  {7}{8}\selectfont  $\leftarrow \joinrel  \rhook $}}{}{}O2}{36}{subsubsection.5.10.2.1}}
\newlabel{classmi_r_net_1_1agents_1_1m_r_n_a___a_g_o2_a5a9ce6bf00987be2dabd42324d8b4784}{{5.10.2.1}{36}{m\+R\+N\+A\+\_\+\+A\+G\+O2}{subsubsection.5.10.2.1}{}}
\@writefile{toc}{\contentsline {subsection}{\numberline {5.10.3}Member Function Documentation}{36}{subsection.5.10.3}}
\@writefile{toc}{\contentsline {subsubsection}{\numberline {5.10.3.1}activity}{36}{subsubsection.5.10.3.1}}
\newlabel{classmi_r_net_1_1agents_1_1m_r_n_a___a_g_o2_a8043ecc2d09e30529f7d06e80ccf6f9a}{{5.10.3.1}{36}{activity}{subsubsection.5.10.3.1}{}}
\@writefile{toc}{\contentsline {subsubsection}{\numberline {5.10.3.2}get\discretionary {\unhbox \voidb@x \hbox {\relax \fontsize  {7}{8}\selectfont  $\leftarrow \joinrel  \rhook $}}{}{}Probability\discretionary {\unhbox \voidb@x \hbox {\relax \fontsize  {7}{8}\selectfont  $\leftarrow \joinrel  \rhook $}}{}{}To\discretionary {\unhbox \voidb@x \hbox {\relax \fontsize  {7}{8}\selectfont  $\leftarrow \joinrel  \rhook $}}{}{}Be\discretionary {\unhbox \voidb@x \hbox {\relax \fontsize  {7}{8}\selectfont  $\leftarrow \joinrel  \rhook $}}{}{}Silenced}{36}{subsubsection.5.10.3.2}}
\newlabel{classmi_r_net_1_1agents_1_1m_r_n_a___a_g_o2_a824ccb43b2e321e14142804ce6e2fc4b}{{5.10.3.2}{36}{get\+Probability\+To\+Be\+Silenced}{subsubsection.5.10.3.2}{}}
\@writefile{toc}{\contentsline {section}{\numberline {5.11}mi\discretionary {\unhbox \voidb@x \hbox {\relax \fontsize  {7}{8}\selectfont  $\leftarrow \joinrel  \rhook $}}{}{}R\discretionary {\unhbox \voidb@x \hbox {\relax \fontsize  {7}{8}\selectfont  $\leftarrow \joinrel  \rhook $}}{}{}Net.\discretionary {\unhbox \voidb@x \hbox {\relax \fontsize  {7}{8}\selectfont  $\leftarrow \joinrel  \rhook $}}{}{}agents.\discretionary {\unhbox \voidb@x \hbox {\relax \fontsize  {7}{8}\selectfont  $\leftarrow \joinrel  \rhook $}}{}{}m\discretionary {\unhbox \voidb@x \hbox {\relax \fontsize  {7}{8}\selectfont  $\leftarrow \joinrel  \rhook $}}{}{}R\discretionary {\unhbox \voidb@x \hbox {\relax \fontsize  {7}{8}\selectfont  $\leftarrow \joinrel  \rhook $}}{}{}N\discretionary {\unhbox \voidb@x \hbox {\relax \fontsize  {7}{8}\selectfont  $\leftarrow \joinrel  \rhook $}}{}{}A\discretionary {\unhbox \voidb@x \hbox {\relax \fontsize  {7}{8}\selectfont  $\leftarrow \joinrel  \rhook $}}{}{}\_\discretionary {\unhbox \voidb@x \hbox {\relax \fontsize  {7}{8}\selectfont  $\leftarrow \joinrel  \rhook $}}{}{}\discretionary {\unhbox \voidb@x \hbox {\relax \fontsize  {7}{8}\selectfont  $\leftarrow \joinrel  \rhook $}}{}{}E\discretionary {\unhbox \voidb@x \hbox {\relax \fontsize  {7}{8}\selectfont  $\leftarrow \joinrel  \rhook $}}{}{}P300 Class Reference}{36}{section.5.11}}
\newlabel{classmi_r_net_1_1agents_1_1m_r_n_a___e_p300}{{5.11}{36}{mi\+R\+Net.\+agents.\+m\+R\+N\+A\+\_\+\+E\+P300 Class Reference}{section.5.11}{}}
\newlabel{classmi_r_net_1_1agents_1_1m_r_n_a___e_p300_a6ea0d3438fe0704b6de3ff4c933f271f}{{5.11}{36}{Protected Attributes}{section*.33}{}}
\gdef \PWST@xv{1}
\@writefile{toc}{\contentsline {subsection}{\numberline {5.11.1}Detailed Description}{38}{subsection.5.11.1}}
\@writefile{toc}{\contentsline {subsection}{\numberline {5.11.2}Constructor \& Destructor Documentation}{38}{subsection.5.11.2}}
\@writefile{toc}{\contentsline {subsubsection}{\numberline {5.11.2.1}m\discretionary {\unhbox \voidb@x \hbox {\relax \fontsize  {7}{8}\selectfont  $\leftarrow \joinrel  \rhook $}}{}{}R\discretionary {\unhbox \voidb@x \hbox {\relax \fontsize  {7}{8}\selectfont  $\leftarrow \joinrel  \rhook $}}{}{}N\discretionary {\unhbox \voidb@x \hbox {\relax \fontsize  {7}{8}\selectfont  $\leftarrow \joinrel  \rhook $}}{}{}A\discretionary {\unhbox \voidb@x \hbox {\relax \fontsize  {7}{8}\selectfont  $\leftarrow \joinrel  \rhook $}}{}{}\_\discretionary {\unhbox \voidb@x \hbox {\relax \fontsize  {7}{8}\selectfont  $\leftarrow \joinrel  \rhook $}}{}{}\discretionary {\unhbox \voidb@x \hbox {\relax \fontsize  {7}{8}\selectfont  $\leftarrow \joinrel  \rhook $}}{}{}E\discretionary {\unhbox \voidb@x \hbox {\relax \fontsize  {7}{8}\selectfont  $\leftarrow \joinrel  \rhook $}}{}{}P300}{38}{subsubsection.5.11.2.1}}
\newlabel{classmi_r_net_1_1agents_1_1m_r_n_a___e_p300_a007643683a468d99e96326947c69aa11}{{5.11.2.1}{38}{m\+R\+N\+A\+\_\+\+E\+P300}{subsubsection.5.11.2.1}{}}
\@writefile{toc}{\contentsline {subsection}{\numberline {5.11.3}Member Function Documentation}{38}{subsection.5.11.3}}
\@writefile{toc}{\contentsline {subsubsection}{\numberline {5.11.3.1}activity}{38}{subsubsection.5.11.3.1}}
\newlabel{classmi_r_net_1_1agents_1_1m_r_n_a___e_p300_a2d8274db00936b8c1af570d942262567}{{5.11.3.1}{38}{activity}{subsubsection.5.11.3.1}{}}
\@writefile{toc}{\contentsline {subsubsection}{\numberline {5.11.3.2}get\discretionary {\unhbox \voidb@x \hbox {\relax \fontsize  {7}{8}\selectfont  $\leftarrow \joinrel  \rhook $}}{}{}Probability\discretionary {\unhbox \voidb@x \hbox {\relax \fontsize  {7}{8}\selectfont  $\leftarrow \joinrel  \rhook $}}{}{}To\discretionary {\unhbox \voidb@x \hbox {\relax \fontsize  {7}{8}\selectfont  $\leftarrow \joinrel  \rhook $}}{}{}Be\discretionary {\unhbox \voidb@x \hbox {\relax \fontsize  {7}{8}\selectfont  $\leftarrow \joinrel  \rhook $}}{}{}Silenced}{38}{subsubsection.5.11.3.2}}
\newlabel{classmi_r_net_1_1agents_1_1m_r_n_a___e_p300_a8cc5d9902ea3adc69bec45d24880c828}{{5.11.3.2}{38}{get\+Probability\+To\+Be\+Silenced}{subsubsection.5.11.3.2}{}}
\@writefile{toc}{\contentsline {section}{\numberline {5.12}mi\discretionary {\unhbox \voidb@x \hbox {\relax \fontsize  {7}{8}\selectfont  $\leftarrow \joinrel  \rhook $}}{}{}R\discretionary {\unhbox \voidb@x \hbox {\relax \fontsize  {7}{8}\selectfont  $\leftarrow \joinrel  \rhook $}}{}{}Net.\discretionary {\unhbox \voidb@x \hbox {\relax \fontsize  {7}{8}\selectfont  $\leftarrow \joinrel  \rhook $}}{}{}agents.\discretionary {\unhbox \voidb@x \hbox {\relax \fontsize  {7}{8}\selectfont  $\leftarrow \joinrel  \rhook $}}{}{}Promoter Class Reference}{38}{section.5.12}}
\newlabel{classmi_r_net_1_1agents_1_1_promoter}{{5.12}{38}{mi\+R\+Net.\+agents.\+Promoter Class Reference}{section.5.12}{}}
\gdef \PWST@xvi{1}
\newlabel{classmi_r_net_1_1agents_1_1_promoter_afd4976f37551be229b29d9a950b91115}{{5.12}{40}{Private Attributes}{section*.36}{}}
\newlabel{classmi_r_net_1_1agents_1_1_promoter_a02086e4c48dade83dcb46ec7c08295a3}{{5.12}{40}{Private Attributes}{section*.36}{}}
\newlabel{classmi_r_net_1_1agents_1_1_promoter_a37e8cc8d514e7ecff7f2f4aa6e73a4f8}{{5.12}{40}{Private Attributes}{section*.36}{}}
\newlabel{classmi_r_net_1_1agents_1_1_promoter_a07d1e7f4f5475bd0ea4a2cf598eeaa69}{{5.12}{40}{Private Attributes}{section*.36}{}}
\newlabel{classmi_r_net_1_1agents_1_1_promoter_a3b04b7b0cd103163e652b5e0d3cbc7ab}{{5.12}{40}{Private Attributes}{section*.36}{}}
\newlabel{classmi_r_net_1_1agents_1_1_promoter_a9f318a970aa670ebd993fdd36aece69f}{{5.12}{40}{Private Attributes}{section*.36}{}}
\newlabel{classmi_r_net_1_1agents_1_1_promoter_a0393026ad0fb7ed074c72750bce22dca}{{5.12}{40}{Private Attributes}{section*.36}{}}
\@writefile{toc}{\contentsline {subsection}{\numberline {5.12.1}Detailed Description}{40}{subsection.5.12.1}}
\@writefile{toc}{\contentsline {subsection}{\numberline {5.12.2}Constructor \& Destructor Documentation}{40}{subsection.5.12.2}}
\@writefile{toc}{\contentsline {subsubsection}{\numberline {5.12.2.1}Promoter}{40}{subsubsection.5.12.2.1}}
\newlabel{classmi_r_net_1_1agents_1_1_promoter_a351c1f1c8a11da00dd2945e9bfabd87f}{{5.12.2.1}{40}{Promoter}{subsubsection.5.12.2.1}{}}
\@writefile{toc}{\contentsline {subsection}{\numberline {5.12.3}Member Function Documentation}{40}{subsection.5.12.3}}
\@writefile{toc}{\contentsline {subsubsection}{\numberline {5.12.3.1}activity}{40}{subsubsection.5.12.3.1}}
\newlabel{classmi_r_net_1_1agents_1_1_promoter_ae41d418dfda2d6f3b6338970042fef52}{{5.12.3.1}{40}{activity}{subsubsection.5.12.3.1}{}}
\@writefile{toc}{\contentsline {subsubsection}{\numberline {5.12.3.2}A\discretionary {\unhbox \voidb@x \hbox {\relax \fontsize  {7}{8}\selectfont  $\leftarrow \joinrel  \rhook $}}{}{}G\discretionary {\unhbox \voidb@x \hbox {\relax \fontsize  {7}{8}\selectfont  $\leftarrow \joinrel  \rhook $}}{}{}O2\discretionary {\unhbox \voidb@x \hbox {\relax \fontsize  {7}{8}\selectfont  $\leftarrow \joinrel  \rhook $}}{}{}Transcription}{40}{subsubsection.5.12.3.2}}
\newlabel{classmi_r_net_1_1agents_1_1_promoter_a912d0e907f1bfead273f7c89daddf105}{{5.12.3.2}{40}{A\+G\+O2\+Transcription}{subsubsection.5.12.3.2}{}}
\@writefile{toc}{\contentsline {subsubsection}{\numberline {5.12.3.3}E\discretionary {\unhbox \voidb@x \hbox {\relax \fontsize  {7}{8}\selectfont  $\leftarrow \joinrel  \rhook $}}{}{}P300\discretionary {\unhbox \voidb@x \hbox {\relax \fontsize  {7}{8}\selectfont  $\leftarrow \joinrel  \rhook $}}{}{}Transcription}{40}{subsubsection.5.12.3.3}}
\newlabel{classmi_r_net_1_1agents_1_1_promoter_af4b8346dfdb872562144ee98deed8cef}{{5.12.3.3}{40}{E\+P300\+Transcription}{subsubsection.5.12.3.3}{}}
\@writefile{toc}{\contentsline {subsubsection}{\numberline {5.12.3.4}get\discretionary {\unhbox \voidb@x \hbox {\relax \fontsize  {7}{8}\selectfont  $\leftarrow \joinrel  \rhook $}}{}{}Mi\discretionary {\unhbox \voidb@x \hbox {\relax \fontsize  {7}{8}\selectfont  $\leftarrow \joinrel  \rhook $}}{}{}R\discretionary {\unhbox \voidb@x \hbox {\relax \fontsize  {7}{8}\selectfont  $\leftarrow \joinrel  \rhook $}}{}{}N\discretionary {\unhbox \voidb@x \hbox {\relax \fontsize  {7}{8}\selectfont  $\leftarrow \joinrel  \rhook $}}{}{}A\discretionary {\unhbox \voidb@x \hbox {\relax \fontsize  {7}{8}\selectfont  $\leftarrow \joinrel  \rhook $}}{}{}Transcription\discretionary {\unhbox \voidb@x \hbox {\relax \fontsize  {7}{8}\selectfont  $\leftarrow \joinrel  \rhook $}}{}{}Time}{40}{subsubsection.5.12.3.4}}
\newlabel{classmi_r_net_1_1agents_1_1_promoter_a28f3e8d589a7e2f6a02272fd1e746c00}{{5.12.3.4}{40}{get\+Mi\+R\+N\+A\+Transcription\+Time}{subsubsection.5.12.3.4}{}}
\@writefile{toc}{\contentsline {subsubsection}{\numberline {5.12.3.5}getp\discretionary {\unhbox \voidb@x \hbox {\relax \fontsize  {7}{8}\selectfont  $\leftarrow \joinrel  \rhook $}}{}{}C\discretionary {\unhbox \voidb@x \hbox {\relax \fontsize  {7}{8}\selectfont  $\leftarrow \joinrel  \rhook $}}{}{}R\discretionary {\unhbox \voidb@x \hbox {\relax \fontsize  {7}{8}\selectfont  $\leftarrow \joinrel  \rhook $}}{}{}E\discretionary {\unhbox \voidb@x \hbox {\relax \fontsize  {7}{8}\selectfont  $\leftarrow \joinrel  \rhook $}}{}{}B\discretionary {\unhbox \voidb@x \hbox {\relax \fontsize  {7}{8}\selectfont  $\leftarrow \joinrel  \rhook $}}{}{}\_\discretionary {\unhbox \voidb@x \hbox {\relax \fontsize  {7}{8}\selectfont  $\leftarrow \joinrel  \rhook $}}{}{}\discretionary {\unhbox \voidb@x \hbox {\relax \fontsize  {7}{8}\selectfont  $\leftarrow \joinrel  \rhook $}}{}{}E\discretionary {\unhbox \voidb@x \hbox {\relax \fontsize  {7}{8}\selectfont  $\leftarrow \joinrel  \rhook $}}{}{}P300\discretionary {\unhbox \voidb@x \hbox {\relax \fontsize  {7}{8}\selectfont  $\leftarrow \joinrel  \rhook $}}{}{}Available\discretionary {\unhbox \voidb@x \hbox {\relax \fontsize  {7}{8}\selectfont  $\leftarrow \joinrel  \rhook $}}{}{}For\discretionary {\unhbox \voidb@x \hbox {\relax \fontsize  {7}{8}\selectfont  $\leftarrow \joinrel  \rhook $}}{}{}Mi\discretionary {\unhbox \voidb@x \hbox {\relax \fontsize  {7}{8}\selectfont  $\leftarrow \joinrel  \rhook $}}{}{}R132\discretionary {\unhbox \voidb@x \hbox {\relax \fontsize  {7}{8}\selectfont  $\leftarrow \joinrel  \rhook $}}{}{}Transcription}{41}{subsubsection.5.12.3.5}}
\newlabel{classmi_r_net_1_1agents_1_1_promoter_afa8454ac0dfe3baac1213d5c74c8c423}{{5.12.3.5}{41}{getp\+C\+R\+E\+B\+\_\+\+E\+P300\+Available\+For\+Mi\+R132\+Transcription}{subsubsection.5.12.3.5}{}}
\@writefile{toc}{\contentsline {subsubsection}{\numberline {5.12.3.6}mi\discretionary {\unhbox \voidb@x \hbox {\relax \fontsize  {7}{8}\selectfont  $\leftarrow \joinrel  \rhook $}}{}{}R132\discretionary {\unhbox \voidb@x \hbox {\relax \fontsize  {7}{8}\selectfont  $\leftarrow \joinrel  \rhook $}}{}{}Transcription}{41}{subsubsection.5.12.3.6}}
\newlabel{classmi_r_net_1_1agents_1_1_promoter_ac54aafb57ed3cc14f194abd565d58a84}{{5.12.3.6}{41}{mi\+R132\+Transcription}{subsubsection.5.12.3.6}{}}
\@writefile{toc}{\contentsline {subsubsection}{\numberline {5.12.3.7}mi\discretionary {\unhbox \voidb@x \hbox {\relax \fontsize  {7}{8}\selectfont  $\leftarrow \joinrel  \rhook $}}{}{}R221\discretionary {\unhbox \voidb@x \hbox {\relax \fontsize  {7}{8}\selectfont  $\leftarrow \joinrel  \rhook $}}{}{}Transcription}{41}{subsubsection.5.12.3.7}}
\newlabel{classmi_r_net_1_1agents_1_1_promoter_a3cec3c3b1d1fc6f54c39c41fcebbb42f}{{5.12.3.7}{41}{mi\+R221\+Transcription}{subsubsection.5.12.3.7}{}}
\@writefile{toc}{\contentsline {subsubsection}{\numberline {5.12.3.8}T\discretionary {\unhbox \voidb@x \hbox {\relax \fontsize  {7}{8}\selectfont  $\leftarrow \joinrel  \rhook $}}{}{}F\discretionary {\unhbox \voidb@x \hbox {\relax \fontsize  {7}{8}\selectfont  $\leftarrow \joinrel  \rhook $}}{}{}Complex\discretionary {\unhbox \voidb@x \hbox {\relax \fontsize  {7}{8}\selectfont  $\leftarrow \joinrel  \rhook $}}{}{}Binding}{41}{subsubsection.5.12.3.8}}
\newlabel{classmi_r_net_1_1agents_1_1_promoter_ad9c0ad2b55ebe0d0d55a62ce28d01642}{{5.12.3.8}{41}{T\+F\+Complex\+Binding}{subsubsection.5.12.3.8}{}}
\@writefile{toc}{\contentsline {subsection}{\numberline {5.12.4}Member Data Documentation}{41}{subsection.5.12.4}}
\@writefile{toc}{\contentsline {subsubsection}{\numberline {5.12.4.1}p\discretionary {\unhbox \voidb@x \hbox {\relax \fontsize  {7}{8}\selectfont  $\leftarrow \joinrel  \rhook $}}{}{}C\discretionary {\unhbox \voidb@x \hbox {\relax \fontsize  {7}{8}\selectfont  $\leftarrow \joinrel  \rhook $}}{}{}R\discretionary {\unhbox \voidb@x \hbox {\relax \fontsize  {7}{8}\selectfont  $\leftarrow \joinrel  \rhook $}}{}{}E\discretionary {\unhbox \voidb@x \hbox {\relax \fontsize  {7}{8}\selectfont  $\leftarrow \joinrel  \rhook $}}{}{}B\discretionary {\unhbox \voidb@x \hbox {\relax \fontsize  {7}{8}\selectfont  $\leftarrow \joinrel  \rhook $}}{}{}\_\discretionary {\unhbox \voidb@x \hbox {\relax \fontsize  {7}{8}\selectfont  $\leftarrow \joinrel  \rhook $}}{}{}\discretionary {\unhbox \voidb@x \hbox {\relax \fontsize  {7}{8}\selectfont  $\leftarrow \joinrel  \rhook $}}{}{}E\discretionary {\unhbox \voidb@x \hbox {\relax \fontsize  {7}{8}\selectfont  $\leftarrow \joinrel  \rhook $}}{}{}P300\discretionary {\unhbox \voidb@x \hbox {\relax \fontsize  {7}{8}\selectfont  $\leftarrow \joinrel  \rhook $}}{}{}Available\discretionary {\unhbox \voidb@x \hbox {\relax \fontsize  {7}{8}\selectfont  $\leftarrow \joinrel  \rhook $}}{}{}For\discretionary {\unhbox \voidb@x \hbox {\relax \fontsize  {7}{8}\selectfont  $\leftarrow \joinrel  \rhook $}}{}{}Mi\discretionary {\unhbox \voidb@x \hbox {\relax \fontsize  {7}{8}\selectfont  $\leftarrow \joinrel  \rhook $}}{}{}R132\discretionary {\unhbox \voidb@x \hbox {\relax \fontsize  {7}{8}\selectfont  $\leftarrow \joinrel  \rhook $}}{}{}Transcription}{41}{subsubsection.5.12.4.1}}
\newlabel{classmi_r_net_1_1agents_1_1_promoter_a5767c687ea6f14e6a6cef79cae3baeda}{{5.12.4.1}{41}{p\+C\+R\+E\+B\+\_\+\+E\+P300\+Available\+For\+Mi\+R132\+Transcription}{subsubsection.5.12.4.1}{}}
\@writefile{toc}{\contentsline {section}{\numberline {5.13}mi\discretionary {\unhbox \voidb@x \hbox {\relax \fontsize  {7}{8}\selectfont  $\leftarrow \joinrel  \rhook $}}{}{}R\discretionary {\unhbox \voidb@x \hbox {\relax \fontsize  {7}{8}\selectfont  $\leftarrow \joinrel  \rhook $}}{}{}Net.\discretionary {\unhbox \voidb@x \hbox {\relax \fontsize  {7}{8}\selectfont  $\leftarrow \joinrel  \rhook $}}{}{}Protein Class Reference}{41}{section.5.13}}
\newlabel{classmi_r_net_1_1_protein}{{5.13}{41}{mi\+R\+Net.\+Protein Class Reference}{section.5.13}{}}
\newlabel{classmi_r_net_1_1_protein_a4d55eefd6e5635f6bef68c3ed342891f}{{5.13}{41}{Protected Attributes}{section*.38}{}}
\@writefile{toc}{\contentsline {subsection}{\numberline {5.13.1}Detailed Description}{43}{subsection.5.13.1}}
\@writefile{toc}{\contentsline {section}{\numberline {5.14}mi\discretionary {\unhbox \voidb@x \hbox {\relax \fontsize  {7}{8}\selectfont  $\leftarrow \joinrel  \rhook $}}{}{}R\discretionary {\unhbox \voidb@x \hbox {\relax \fontsize  {7}{8}\selectfont  $\leftarrow \joinrel  \rhook $}}{}{}Net.\discretionary {\unhbox \voidb@x \hbox {\relax \fontsize  {7}{8}\selectfont  $\leftarrow \joinrel  \rhook $}}{}{}agents.\discretionary {\unhbox \voidb@x \hbox {\relax \fontsize  {7}{8}\selectfont  $\leftarrow \joinrel  \rhook $}}{}{}Protein\discretionary {\unhbox \voidb@x \hbox {\relax \fontsize  {7}{8}\selectfont  $\leftarrow \joinrel  \rhook $}}{}{}\_\discretionary {\unhbox \voidb@x \hbox {\relax \fontsize  {7}{8}\selectfont  $\leftarrow \joinrel  \rhook $}}{}{}\discretionary {\unhbox \voidb@x \hbox {\relax \fontsize  {7}{8}\selectfont  $\leftarrow \joinrel  \rhook $}}{}{}A\discretionary {\unhbox \voidb@x \hbox {\relax \fontsize  {7}{8}\selectfont  $\leftarrow \joinrel  \rhook $}}{}{}G\discretionary {\unhbox \voidb@x \hbox {\relax \fontsize  {7}{8}\selectfont  $\leftarrow \joinrel  \rhook $}}{}{}O2 Class Reference}{43}{section.5.14}}
\newlabel{classmi_r_net_1_1agents_1_1_protein___a_g_o2}{{5.14}{43}{mi\+R\+Net.\+agents.\+Protein\+\_\+\+A\+G\+O2 Class Reference}{section.5.14}{}}
\newlabel{classmi_r_net_1_1agents_1_1_protein___a_g_o2_af9ea523754b70d32df2d1e6eb4dfab88}{{5.14}{43}{Public Attributes}{section*.41}{}}
\newlabel{classmi_r_net_1_1agents_1_1_protein___a_g_o2_aca945c251f955c0d4794a764d494d64b}{{5.14}{43}{Protected Member Functions}{section*.42}{}}
\gdef \PWST@xvii{1}
\newlabel{classmi_r_net_1_1agents_1_1_protein___a_g_o2_a6a6a0293693341476cd835b35de5990c}{{5.14}{44}{Private Attributes}{section*.43}{}}
\newlabel{classmi_r_net_1_1agents_1_1_protein___a_g_o2_a8a7b609dd2ee7e09a4001c0189a55701}{{5.14}{44}{Private Attributes}{section*.43}{}}
\newlabel{classmi_r_net_1_1agents_1_1_protein___a_g_o2_a964019a419566ab304fd7438326cc155}{{5.14}{44}{Private Attributes}{section*.43}{}}
\newlabel{classmi_r_net_1_1agents_1_1_protein___a_g_o2_a52701d8308b894793d74c7f588c0cbe1}{{5.14}{44}{Private Attributes}{section*.43}{}}
\newlabel{classmi_r_net_1_1agents_1_1_protein___a_g_o2_a5aaa740646d7c94b04570bcd9790b5d2}{{5.14}{44}{Private Attributes}{section*.43}{}}
\newlabel{classmi_r_net_1_1agents_1_1_protein___a_g_o2_af823ae8d4ceb49235b8c500d84470ae4}{{5.14}{44}{Private Attributes}{section*.43}{}}
\newlabel{classmi_r_net_1_1agents_1_1_protein___a_g_o2_a43e331396632f544c40d5188afbf8d22}{{5.14}{44}{Private Attributes}{section*.43}{}}
\newlabel{classmi_r_net_1_1agents_1_1_protein___a_g_o2_ac7795c7b01b1b39a2f71552fc1ac4fff}{{5.14}{44}{Private Attributes}{section*.43}{}}
\newlabel{classmi_r_net_1_1agents_1_1_protein___a_g_o2_a3e58fa0b8fda8d82441b726f8b7bedea}{{5.14}{44}{Private Attributes}{section*.43}{}}
\newlabel{classmi_r_net_1_1agents_1_1_protein___a_g_o2_a9336955fb33bdf94f84d7909476969f3}{{5.14}{44}{Private Attributes}{section*.43}{}}
\newlabel{classmi_r_net_1_1agents_1_1_protein___a_g_o2_a9ebd44a62e57fbc895a56ed1080d1486}{{5.14}{44}{Private Attributes}{section*.43}{}}
\newlabel{classmi_r_net_1_1agents_1_1_protein___a_g_o2_a21a40acbb4d6a8d4c20d658b95e40c86}{{5.14}{44}{Private Attributes}{section*.43}{}}
\newlabel{classmi_r_net_1_1agents_1_1_protein___a_g_o2_a36b59f118a0d9702d6188cf12eecc604}{{5.14}{44}{Private Attributes}{section*.43}{}}
\newlabel{classmi_r_net_1_1agents_1_1_protein___a_g_o2_ae457cf6da67012b5a913909ffaea208d}{{5.14}{44}{Private Attributes}{section*.43}{}}
\newlabel{classmi_r_net_1_1agents_1_1_protein___a_g_o2_a85213d6efce09b8fcdc42a2e37a900fb}{{5.14}{44}{Private Attributes}{section*.43}{}}
\@writefile{toc}{\contentsline {subsection}{\numberline {5.14.1}Detailed Description}{44}{subsection.5.14.1}}
\@writefile{toc}{\contentsline {subsection}{\numberline {5.14.2}Constructor \& Destructor Documentation}{44}{subsection.5.14.2}}
\@writefile{toc}{\contentsline {subsubsection}{\numberline {5.14.2.1}Protein\discretionary {\unhbox \voidb@x \hbox {\relax \fontsize  {7}{8}\selectfont  $\leftarrow \joinrel  \rhook $}}{}{}\_\discretionary {\unhbox \voidb@x \hbox {\relax \fontsize  {7}{8}\selectfont  $\leftarrow \joinrel  \rhook $}}{}{}\discretionary {\unhbox \voidb@x \hbox {\relax \fontsize  {7}{8}\selectfont  $\leftarrow \joinrel  \rhook $}}{}{}A\discretionary {\unhbox \voidb@x \hbox {\relax \fontsize  {7}{8}\selectfont  $\leftarrow \joinrel  \rhook $}}{}{}G\discretionary {\unhbox \voidb@x \hbox {\relax \fontsize  {7}{8}\selectfont  $\leftarrow \joinrel  \rhook $}}{}{}O2}{44}{subsubsection.5.14.2.1}}
\newlabel{classmi_r_net_1_1agents_1_1_protein___a_g_o2_a0167180b00dc06fccfc830c6d301c319}{{5.14.2.1}{44}{Protein\+\_\+\+A\+G\+O2}{subsubsection.5.14.2.1}{}}
\@writefile{toc}{\contentsline {subsection}{\numberline {5.14.3}Member Function Documentation}{44}{subsection.5.14.3}}
\@writefile{toc}{\contentsline {subsubsection}{\numberline {5.14.3.1}activity}{44}{subsubsection.5.14.3.1}}
\newlabel{classmi_r_net_1_1agents_1_1_protein___a_g_o2_abbce65c6f0dc9c0db24c9715100b34e2}{{5.14.3.1}{44}{activity}{subsubsection.5.14.3.1}{}}
\@writefile{toc}{\contentsline {subsubsection}{\numberline {5.14.3.2}co\discretionary {\unhbox \voidb@x \hbox {\relax \fontsize  {7}{8}\selectfont  $\leftarrow \joinrel  \rhook $}}{}{}Factor\discretionary {\unhbox \voidb@x \hbox {\relax \fontsize  {7}{8}\selectfont  $\leftarrow \joinrel  \rhook $}}{}{}Binding}{44}{subsubsection.5.14.3.2}}
\newlabel{classmi_r_net_1_1agents_1_1_protein___a_g_o2_a8154b6f5d71d245d13ced669c9f237fd}{{5.14.3.2}{44}{co\+Factor\+Binding}{subsubsection.5.14.3.2}{}}
\@writefile{toc}{\contentsline {subsubsection}{\numberline {5.14.3.3}find\discretionary {\unhbox \voidb@x \hbox {\relax \fontsize  {7}{8}\selectfont  $\leftarrow \joinrel  \rhook $}}{}{}Mi\discretionary {\unhbox \voidb@x \hbox {\relax \fontsize  {7}{8}\selectfont  $\leftarrow \joinrel  \rhook $}}{}{}R\discretionary {\unhbox \voidb@x \hbox {\relax \fontsize  {7}{8}\selectfont  $\leftarrow \joinrel  \rhook $}}{}{}N\discretionary {\unhbox \voidb@x \hbox {\relax \fontsize  {7}{8}\selectfont  $\leftarrow \joinrel  \rhook $}}{}{}A}{46}{subsubsection.5.14.3.3}}
\newlabel{classmi_r_net_1_1agents_1_1_protein___a_g_o2_a249b9a3bb3804fc1a3f52a34256c5b81}{{5.14.3.3}{46}{find\+Mi\+R\+N\+A}{subsubsection.5.14.3.3}{}}
\@writefile{toc}{\contentsline {subsubsection}{\numberline {5.14.3.4}get\discretionary {\unhbox \voidb@x \hbox {\relax \fontsize  {7}{8}\selectfont  $\leftarrow \joinrel  \rhook $}}{}{}Available\discretionary {\unhbox \voidb@x \hbox {\relax \fontsize  {7}{8}\selectfont  $\leftarrow \joinrel  \rhook $}}{}{}To\discretionary {\unhbox \voidb@x \hbox {\relax \fontsize  {7}{8}\selectfont  $\leftarrow \joinrel  \rhook $}}{}{}Mi\discretionary {\unhbox \voidb@x \hbox {\relax \fontsize  {7}{8}\selectfont  $\leftarrow \joinrel  \rhook $}}{}{}R\discretionary {\unhbox \voidb@x \hbox {\relax \fontsize  {7}{8}\selectfont  $\leftarrow \joinrel  \rhook $}}{}{}N\discretionary {\unhbox \voidb@x \hbox {\relax \fontsize  {7}{8}\selectfont  $\leftarrow \joinrel  \rhook $}}{}{}As}{46}{subsubsection.5.14.3.4}}
\newlabel{classmi_r_net_1_1agents_1_1_protein___a_g_o2_a6c2447259d676c9a6a21accc572cd8a8}{{5.14.3.4}{46}{get\+Available\+To\+Mi\+R\+N\+As}{subsubsection.5.14.3.4}{}}
\@writefile{toc}{\contentsline {subsubsection}{\numberline {5.14.3.5}get\discretionary {\unhbox \voidb@x \hbox {\relax \fontsize  {7}{8}\selectfont  $\leftarrow \joinrel  \rhook $}}{}{}Available\discretionary {\unhbox \voidb@x \hbox {\relax \fontsize  {7}{8}\selectfont  $\leftarrow \joinrel  \rhook $}}{}{}To\discretionary {\unhbox \voidb@x \hbox {\relax \fontsize  {7}{8}\selectfont  $\leftarrow \joinrel  \rhook $}}{}{}M\discretionary {\unhbox \voidb@x \hbox {\relax \fontsize  {7}{8}\selectfont  $\leftarrow \joinrel  \rhook $}}{}{}R\discretionary {\unhbox \voidb@x \hbox {\relax \fontsize  {7}{8}\selectfont  $\leftarrow \joinrel  \rhook $}}{}{}N\discretionary {\unhbox \voidb@x \hbox {\relax \fontsize  {7}{8}\selectfont  $\leftarrow \joinrel  \rhook $}}{}{}As}{46}{subsubsection.5.14.3.5}}
\newlabel{classmi_r_net_1_1agents_1_1_protein___a_g_o2_abb8e3b2ee83013132f70b4fbf178f7b8}{{5.14.3.5}{46}{get\+Available\+To\+M\+R\+N\+As}{subsubsection.5.14.3.5}{}}
\@writefile{toc}{\contentsline {subsubsection}{\numberline {5.14.3.6}get\discretionary {\unhbox \voidb@x \hbox {\relax \fontsize  {7}{8}\selectfont  $\leftarrow \joinrel  \rhook $}}{}{}Bound\discretionary {\unhbox \voidb@x \hbox {\relax \fontsize  {7}{8}\selectfont  $\leftarrow \joinrel  \rhook $}}{}{}Mi\discretionary {\unhbox \voidb@x \hbox {\relax \fontsize  {7}{8}\selectfont  $\leftarrow \joinrel  \rhook $}}{}{}R\discretionary {\unhbox \voidb@x \hbox {\relax \fontsize  {7}{8}\selectfont  $\leftarrow \joinrel  \rhook $}}{}{}N\discretionary {\unhbox \voidb@x \hbox {\relax \fontsize  {7}{8}\selectfont  $\leftarrow \joinrel  \rhook $}}{}{}A}{46}{subsubsection.5.14.3.6}}
\newlabel{classmi_r_net_1_1agents_1_1_protein___a_g_o2_a34d65e21b22154e56711238ced117e39}{{5.14.3.6}{46}{get\+Bound\+Mi\+R\+N\+A}{subsubsection.5.14.3.6}{}}
\@writefile{toc}{\contentsline {subsubsection}{\numberline {5.14.3.7}get\discretionary {\unhbox \voidb@x \hbox {\relax \fontsize  {7}{8}\selectfont  $\leftarrow \joinrel  \rhook $}}{}{}Bound\discretionary {\unhbox \voidb@x \hbox {\relax \fontsize  {7}{8}\selectfont  $\leftarrow \joinrel  \rhook $}}{}{}M\discretionary {\unhbox \voidb@x \hbox {\relax \fontsize  {7}{8}\selectfont  $\leftarrow \joinrel  \rhook $}}{}{}R\discretionary {\unhbox \voidb@x \hbox {\relax \fontsize  {7}{8}\selectfont  $\leftarrow \joinrel  \rhook $}}{}{}N\discretionary {\unhbox \voidb@x \hbox {\relax \fontsize  {7}{8}\selectfont  $\leftarrow \joinrel  \rhook $}}{}{}A}{46}{subsubsection.5.14.3.7}}
\newlabel{classmi_r_net_1_1agents_1_1_protein___a_g_o2_a2372661cdb1cd4eab08d960ceb2aedcc}{{5.14.3.7}{46}{get\+Bound\+M\+R\+N\+A}{subsubsection.5.14.3.7}{}}
\@writefile{toc}{\contentsline {subsubsection}{\numberline {5.14.3.8}get\discretionary {\unhbox \voidb@x \hbox {\relax \fontsize  {7}{8}\selectfont  $\leftarrow \joinrel  \rhook $}}{}{}Life\discretionary {\unhbox \voidb@x \hbox {\relax \fontsize  {7}{8}\selectfont  $\leftarrow \joinrel  \rhook $}}{}{}Span}{46}{subsubsection.5.14.3.8}}
\newlabel{classmi_r_net_1_1agents_1_1_protein___a_g_o2_a74a445e5d2b7207fcc6eac84a9c3759d}{{5.14.3.8}{46}{get\+Life\+Span}{subsubsection.5.14.3.8}{}}
\@writefile{toc}{\contentsline {subsubsection}{\numberline {5.14.3.9}getsilencing\discretionary {\unhbox \voidb@x \hbox {\relax \fontsize  {7}{8}\selectfont  $\leftarrow \joinrel  \rhook $}}{}{}Count\discretionary {\unhbox \voidb@x \hbox {\relax \fontsize  {7}{8}\selectfont  $\leftarrow \joinrel  \rhook $}}{}{}Limit}{47}{subsubsection.5.14.3.9}}
\newlabel{classmi_r_net_1_1agents_1_1_protein___a_g_o2_a3fe92c8c4ec597dfc9097ee981569249}{{5.14.3.9}{47}{getsilencing\+Count\+Limit}{subsubsection.5.14.3.9}{}}
\@writefile{toc}{\contentsline {subsubsection}{\numberline {5.14.3.10}get\discretionary {\unhbox \voidb@x \hbox {\relax \fontsize  {7}{8}\selectfont  $\leftarrow \joinrel  \rhook $}}{}{}Target\discretionary {\unhbox \voidb@x \hbox {\relax \fontsize  {7}{8}\selectfont  $\leftarrow \joinrel  \rhook $}}{}{}Mi\discretionary {\unhbox \voidb@x \hbox {\relax \fontsize  {7}{8}\selectfont  $\leftarrow \joinrel  \rhook $}}{}{}R\discretionary {\unhbox \voidb@x \hbox {\relax \fontsize  {7}{8}\selectfont  $\leftarrow \joinrel  \rhook $}}{}{}N\discretionary {\unhbox \voidb@x \hbox {\relax \fontsize  {7}{8}\selectfont  $\leftarrow \joinrel  \rhook $}}{}{}A}{47}{subsubsection.5.14.3.10}}
\newlabel{classmi_r_net_1_1agents_1_1_protein___a_g_o2_a7feba0f84d4d195d0f8737a1dd60f62f}{{5.14.3.10}{47}{get\+Target\+Mi\+R\+N\+A}{subsubsection.5.14.3.10}{}}
\@writefile{toc}{\contentsline {subsubsection}{\numberline {5.14.3.11}mi\discretionary {\unhbox \voidb@x \hbox {\relax \fontsize  {7}{8}\selectfont  $\leftarrow \joinrel  \rhook $}}{}{}R132\discretionary {\unhbox \voidb@x \hbox {\relax \fontsize  {7}{8}\selectfont  $\leftarrow \joinrel  \rhook $}}{}{}Binding}{47}{subsubsection.5.14.3.11}}
\newlabel{classmi_r_net_1_1agents_1_1_protein___a_g_o2_a04e7ed65bcfd91862e43052c16bc473f}{{5.14.3.11}{47}{mi\+R132\+Binding}{subsubsection.5.14.3.11}{}}
\@writefile{toc}{\contentsline {subsubsection}{\numberline {5.14.3.12}mi\discretionary {\unhbox \voidb@x \hbox {\relax \fontsize  {7}{8}\selectfont  $\leftarrow \joinrel  \rhook $}}{}{}R221\discretionary {\unhbox \voidb@x \hbox {\relax \fontsize  {7}{8}\selectfont  $\leftarrow \joinrel  \rhook $}}{}{}Binding}{47}{subsubsection.5.14.3.12}}
\newlabel{classmi_r_net_1_1agents_1_1_protein___a_g_o2_ae37b0eb8a9cc9be0c48a6ca4183665f4}{{5.14.3.12}{47}{mi\+R221\+Binding}{subsubsection.5.14.3.12}{}}
\@writefile{toc}{\contentsline {subsubsection}{\numberline {5.14.3.13}move\discretionary {\unhbox \voidb@x \hbox {\relax \fontsize  {7}{8}\selectfont  $\leftarrow \joinrel  \rhook $}}{}{}Randomly}{47}{subsubsection.5.14.3.13}}
\newlabel{classmi_r_net_1_1agents_1_1_protein___a_g_o2_a8ebb642651ea693d6f3c3730f477b98b}{{5.14.3.13}{47}{move\+Randomly}{subsubsection.5.14.3.13}{}}
\@writefile{toc}{\contentsline {subsubsection}{\numberline {5.14.3.14}move\discretionary {\unhbox \voidb@x \hbox {\relax \fontsize  {7}{8}\selectfont  $\leftarrow \joinrel  \rhook $}}{}{}Towards\discretionary {\unhbox \voidb@x \hbox {\relax \fontsize  {7}{8}\selectfont  $\leftarrow \joinrel  \rhook $}}{}{}M\discretionary {\unhbox \voidb@x \hbox {\relax \fontsize  {7}{8}\selectfont  $\leftarrow \joinrel  \rhook $}}{}{}R\discretionary {\unhbox \voidb@x \hbox {\relax \fontsize  {7}{8}\selectfont  $\leftarrow \joinrel  \rhook $}}{}{}N\discretionary {\unhbox \voidb@x \hbox {\relax \fontsize  {7}{8}\selectfont  $\leftarrow \joinrel  \rhook $}}{}{}A}{47}{subsubsection.5.14.3.14}}
\newlabel{classmi_r_net_1_1agents_1_1_protein___a_g_o2_a1c09db671cbc158b07194034ef226c01}{{5.14.3.14}{47}{move\+Towards\+M\+R\+N\+A}{subsubsection.5.14.3.14}{}}
\@writefile{toc}{\contentsline {subsubsection}{\numberline {5.14.3.15}set\discretionary {\unhbox \voidb@x \hbox {\relax \fontsize  {7}{8}\selectfont  $\leftarrow \joinrel  \rhook $}}{}{}Available\discretionary {\unhbox \voidb@x \hbox {\relax \fontsize  {7}{8}\selectfont  $\leftarrow \joinrel  \rhook $}}{}{}To\discretionary {\unhbox \voidb@x \hbox {\relax \fontsize  {7}{8}\selectfont  $\leftarrow \joinrel  \rhook $}}{}{}Mi\discretionary {\unhbox \voidb@x \hbox {\relax \fontsize  {7}{8}\selectfont  $\leftarrow \joinrel  \rhook $}}{}{}R\discretionary {\unhbox \voidb@x \hbox {\relax \fontsize  {7}{8}\selectfont  $\leftarrow \joinrel  \rhook $}}{}{}N\discretionary {\unhbox \voidb@x \hbox {\relax \fontsize  {7}{8}\selectfont  $\leftarrow \joinrel  \rhook $}}{}{}As}{47}{subsubsection.5.14.3.15}}
\newlabel{classmi_r_net_1_1agents_1_1_protein___a_g_o2_a50755f40e45673dc4550b927921a7f87}{{5.14.3.15}{47}{set\+Available\+To\+Mi\+R\+N\+As}{subsubsection.5.14.3.15}{}}
\@writefile{toc}{\contentsline {subsubsection}{\numberline {5.14.3.16}silencing\discretionary {\unhbox \voidb@x \hbox {\relax \fontsize  {7}{8}\selectfont  $\leftarrow \joinrel  \rhook $}}{}{}By\discretionary {\unhbox \voidb@x \hbox {\relax \fontsize  {7}{8}\selectfont  $\leftarrow \joinrel  \rhook $}}{}{}R\discretionary {\unhbox \voidb@x \hbox {\relax \fontsize  {7}{8}\selectfont  $\leftarrow \joinrel  \rhook $}}{}{}I\discretionary {\unhbox \voidb@x \hbox {\relax \fontsize  {7}{8}\selectfont  $\leftarrow \joinrel  \rhook $}}{}{}S\discretionary {\unhbox \voidb@x \hbox {\relax \fontsize  {7}{8}\selectfont  $\leftarrow \joinrel  \rhook $}}{}{}C}{47}{subsubsection.5.14.3.16}}
\newlabel{classmi_r_net_1_1agents_1_1_protein___a_g_o2_a615d0661dd0548fd4d5b4e3c96fe6930}{{5.14.3.16}{47}{silencing\+By\+R\+I\+S\+C}{subsubsection.5.14.3.16}{}}
\@writefile{toc}{\contentsline {section}{\numberline {5.15}mi\discretionary {\unhbox \voidb@x \hbox {\relax \fontsize  {7}{8}\selectfont  $\leftarrow \joinrel  \rhook $}}{}{}R\discretionary {\unhbox \voidb@x \hbox {\relax \fontsize  {7}{8}\selectfont  $\leftarrow \joinrel  \rhook $}}{}{}Net.\discretionary {\unhbox \voidb@x \hbox {\relax \fontsize  {7}{8}\selectfont  $\leftarrow \joinrel  \rhook $}}{}{}agents.\discretionary {\unhbox \voidb@x \hbox {\relax \fontsize  {7}{8}\selectfont  $\leftarrow \joinrel  \rhook $}}{}{}Protein\discretionary {\unhbox \voidb@x \hbox {\relax \fontsize  {7}{8}\selectfont  $\leftarrow \joinrel  \rhook $}}{}{}\_\discretionary {\unhbox \voidb@x \hbox {\relax \fontsize  {7}{8}\selectfont  $\leftarrow \joinrel  \rhook $}}{}{}\discretionary {\unhbox \voidb@x \hbox {\relax \fontsize  {7}{8}\selectfont  $\leftarrow \joinrel  \rhook $}}{}{}C\discretionary {\unhbox \voidb@x \hbox {\relax \fontsize  {7}{8}\selectfont  $\leftarrow \joinrel  \rhook $}}{}{}R\discretionary {\unhbox \voidb@x \hbox {\relax \fontsize  {7}{8}\selectfont  $\leftarrow \joinrel  \rhook $}}{}{}E\discretionary {\unhbox \voidb@x \hbox {\relax \fontsize  {7}{8}\selectfont  $\leftarrow \joinrel  \rhook $}}{}{}B Class Reference}{50}{section.5.15}}
\newlabel{classmi_r_net_1_1agents_1_1_protein___c_r_e_b}{{5.15}{50}{mi\+R\+Net.\+agents.\+Protein\+\_\+\+C\+R\+E\+B Class Reference}{section.5.15}{}}
\newlabel{classmi_r_net_1_1agents_1_1_protein___c_r_e_b_ae27909291b3f2474979d0d2c39fdb873}{{5.15}{50}{Public Attributes}{section*.46}{}}
\newlabel{classmi_r_net_1_1agents_1_1_protein___c_r_e_b_a5a845c5cb9550d97c7f5bf8dba63bf84}{{5.15}{50}{Private Attributes}{section*.47}{}}
\newlabel{classmi_r_net_1_1agents_1_1_protein___c_r_e_b_a7eb3713baf33280671ac3f0061b5a0dd}{{5.15}{50}{Private Attributes}{section*.47}{}}
\newlabel{classmi_r_net_1_1agents_1_1_protein___c_r_e_b_a07443c01ae4094578d099a9056e0fab5}{{5.15}{50}{Private Attributes}{section*.47}{}}
\newlabel{classmi_r_net_1_1agents_1_1_protein___c_r_e_b_ab36beacd21b0187ac700b883ee5d9332}{{5.15}{50}{Private Attributes}{section*.47}{}}
\newlabel{classmi_r_net_1_1agents_1_1_protein___c_r_e_b_a778361cb7750e772b05db7d252fd2039}{{5.15}{50}{Private Attributes}{section*.47}{}}
\@writefile{toc}{\contentsline {subsection}{\numberline {5.15.1}Detailed Description}{50}{subsection.5.15.1}}
\@writefile{toc}{\contentsline {subsection}{\numberline {5.15.2}Constructor \& Destructor Documentation}{50}{subsection.5.15.2}}
\@writefile{toc}{\contentsline {subsubsection}{\numberline {5.15.2.1}Protein\discretionary {\unhbox \voidb@x \hbox {\relax \fontsize  {7}{8}\selectfont  $\leftarrow \joinrel  \rhook $}}{}{}\_\discretionary {\unhbox \voidb@x \hbox {\relax \fontsize  {7}{8}\selectfont  $\leftarrow \joinrel  \rhook $}}{}{}\discretionary {\unhbox \voidb@x \hbox {\relax \fontsize  {7}{8}\selectfont  $\leftarrow \joinrel  \rhook $}}{}{}C\discretionary {\unhbox \voidb@x \hbox {\relax \fontsize  {7}{8}\selectfont  $\leftarrow \joinrel  \rhook $}}{}{}R\discretionary {\unhbox \voidb@x \hbox {\relax \fontsize  {7}{8}\selectfont  $\leftarrow \joinrel  \rhook $}}{}{}E\discretionary {\unhbox \voidb@x \hbox {\relax \fontsize  {7}{8}\selectfont  $\leftarrow \joinrel  \rhook $}}{}{}B}{50}{subsubsection.5.15.2.1}}
\newlabel{classmi_r_net_1_1agents_1_1_protein___c_r_e_b_a8122d26331539949589e4861c4c55c53}{{5.15.2.1}{50}{Protein\+\_\+\+C\+R\+E\+B}{subsubsection.5.15.2.1}{}}
\gdef \PWST@xviii{1}
\gdef \PWST@xix{1}
\gdef \PWST@xx{1}
\@writefile{toc}{\contentsline {subsection}{\numberline {5.15.3}Member Function Documentation}{51}{subsection.5.15.3}}
\@writefile{toc}{\contentsline {subsubsection}{\numberline {5.15.3.1}activity}{51}{subsubsection.5.15.3.1}}
\newlabel{classmi_r_net_1_1agents_1_1_protein___c_r_e_b_a25a6e5e51c9ff2bf3a9ac3d2d178fb27}{{5.15.3.1}{51}{activity}{subsubsection.5.15.3.1}{}}
\@writefile{toc}{\contentsline {subsubsection}{\numberline {5.15.3.2}dephosphorylate\discretionary {\unhbox \voidb@x \hbox {\relax \fontsize  {7}{8}\selectfont  $\leftarrow \joinrel  \rhook $}}{}{}By\discretionary {\unhbox \voidb@x \hbox {\relax \fontsize  {7}{8}\selectfont  $\leftarrow \joinrel  \rhook $}}{}{}Chance}{51}{subsubsection.5.15.3.2}}
\newlabel{classmi_r_net_1_1agents_1_1_protein___c_r_e_b_ae7bd5925a7cbd3b101b315ef9909f576}{{5.15.3.2}{51}{dephosphorylate\+By\+Chance}{subsubsection.5.15.3.2}{}}
\@writefile{toc}{\contentsline {subsubsection}{\numberline {5.15.3.3}find\discretionary {\unhbox \voidb@x \hbox {\relax \fontsize  {7}{8}\selectfont  $\leftarrow \joinrel  \rhook $}}{}{}E\discretionary {\unhbox \voidb@x \hbox {\relax \fontsize  {7}{8}\selectfont  $\leftarrow \joinrel  \rhook $}}{}{}P300}{51}{subsubsection.5.15.3.3}}
\newlabel{classmi_r_net_1_1agents_1_1_protein___c_r_e_b_a60c7a742381f9ef1946e77870708ca00}{{5.15.3.3}{51}{find\+E\+P300}{subsubsection.5.15.3.3}{}}
\@writefile{toc}{\contentsline {subsubsection}{\numberline {5.15.3.4}get\discretionary {\unhbox \voidb@x \hbox {\relax \fontsize  {7}{8}\selectfont  $\leftarrow \joinrel  \rhook $}}{}{}Phosphorylated}{51}{subsubsection.5.15.3.4}}
\newlabel{classmi_r_net_1_1agents_1_1_protein___c_r_e_b_acb65ca8429b3845287985b6ffc0cdbb3}{{5.15.3.4}{51}{get\+Phosphorylated}{subsubsection.5.15.3.4}{}}
\@writefile{toc}{\contentsline {subsubsection}{\numberline {5.15.3.5}move}{51}{subsubsection.5.15.3.5}}
\newlabel{classmi_r_net_1_1agents_1_1_protein___c_r_e_b_af77e7a8cc00eeffbeb8a68b95fd6d6a8}{{5.15.3.5}{51}{move}{subsubsection.5.15.3.5}{}}
\@writefile{toc}{\contentsline {subsubsection}{\numberline {5.15.3.6}phosphorylate\discretionary {\unhbox \voidb@x \hbox {\relax \fontsize  {7}{8}\selectfont  $\leftarrow \joinrel  \rhook $}}{}{}By\discretionary {\unhbox \voidb@x \hbox {\relax \fontsize  {7}{8}\selectfont  $\leftarrow \joinrel  \rhook $}}{}{}Chance}{53}{subsubsection.5.15.3.6}}
\newlabel{classmi_r_net_1_1agents_1_1_protein___c_r_e_b_af95419a6e8ded92fc7f719c5e4129dcd}{{5.15.3.6}{53}{phosphorylate\+By\+Chance}{subsubsection.5.15.3.6}{}}
\gdef \PWST@xxi{1}
\@writefile{toc}{\contentsline {section}{\numberline {5.16}mi\discretionary {\unhbox \voidb@x \hbox {\relax \fontsize  {7}{8}\selectfont  $\leftarrow \joinrel  \rhook $}}{}{}R\discretionary {\unhbox \voidb@x \hbox {\relax \fontsize  {7}{8}\selectfont  $\leftarrow \joinrel  \rhook $}}{}{}Net.\discretionary {\unhbox \voidb@x \hbox {\relax \fontsize  {7}{8}\selectfont  $\leftarrow \joinrel  \rhook $}}{}{}agents.\discretionary {\unhbox \voidb@x \hbox {\relax \fontsize  {7}{8}\selectfont  $\leftarrow \joinrel  \rhook $}}{}{}Protein\discretionary {\unhbox \voidb@x \hbox {\relax \fontsize  {7}{8}\selectfont  $\leftarrow \joinrel  \rhook $}}{}{}\_\discretionary {\unhbox \voidb@x \hbox {\relax \fontsize  {7}{8}\selectfont  $\leftarrow \joinrel  \rhook $}}{}{}\discretionary {\unhbox \voidb@x \hbox {\relax \fontsize  {7}{8}\selectfont  $\leftarrow \joinrel  \rhook $}}{}{}E\discretionary {\unhbox \voidb@x \hbox {\relax \fontsize  {7}{8}\selectfont  $\leftarrow \joinrel  \rhook $}}{}{}P300 Class Reference}{54}{section.5.16}}
\newlabel{classmi_r_net_1_1agents_1_1_protein___e_p300}{{5.16}{54}{mi\+R\+Net.\+agents.\+Protein\+\_\+\+E\+P300 Class Reference}{section.5.16}{}}
\newlabel{classmi_r_net_1_1agents_1_1_protein___e_p300_a599b34514d047a413a2ed870ed2dc8a7}{{5.16}{54}{Public Attributes}{section*.50}{}}
\newlabel{classmi_r_net_1_1agents_1_1_protein___e_p300_a5f57962009a863e5be897b82de4fa7e8}{{5.16}{54}{Private Attributes}{section*.51}{}}
\newlabel{classmi_r_net_1_1agents_1_1_protein___e_p300_a8eb8e773e42982164c39c506a9893189}{{5.16}{54}{Private Attributes}{section*.51}{}}
\newlabel{classmi_r_net_1_1agents_1_1_protein___e_p300_abdf4b8dadc6fc3d423e1e8ed70589597}{{5.16}{54}{Private Attributes}{section*.51}{}}
\newlabel{classmi_r_net_1_1agents_1_1_protein___e_p300_aa192d045df19374490480edf79874348}{{5.16}{54}{Private Attributes}{section*.51}{}}
\newlabel{classmi_r_net_1_1agents_1_1_protein___e_p300_a3a46d85362ebb9cfd0397a6b88c08056}{{5.16}{54}{Private Attributes}{section*.51}{}}
\newlabel{classmi_r_net_1_1agents_1_1_protein___e_p300_a326053fde279ba09bcc49a105d67ce0f}{{5.16}{54}{Private Attributes}{section*.51}{}}
\@writefile{toc}{\contentsline {subsection}{\numberline {5.16.1}Detailed Description}{54}{subsection.5.16.1}}
\gdef \PWST@xxii{1}
\@writefile{toc}{\contentsline {subsection}{\numberline {5.16.2}Constructor \& Destructor Documentation}{56}{subsection.5.16.2}}
\@writefile{toc}{\contentsline {subsubsection}{\numberline {5.16.2.1}Protein\discretionary {\unhbox \voidb@x \hbox {\relax \fontsize  {7}{8}\selectfont  $\leftarrow \joinrel  \rhook $}}{}{}\_\discretionary {\unhbox \voidb@x \hbox {\relax \fontsize  {7}{8}\selectfont  $\leftarrow \joinrel  \rhook $}}{}{}\discretionary {\unhbox \voidb@x \hbox {\relax \fontsize  {7}{8}\selectfont  $\leftarrow \joinrel  \rhook $}}{}{}E\discretionary {\unhbox \voidb@x \hbox {\relax \fontsize  {7}{8}\selectfont  $\leftarrow \joinrel  \rhook $}}{}{}P300}{56}{subsubsection.5.16.2.1}}
\newlabel{classmi_r_net_1_1agents_1_1_protein___e_p300_aff240dbca5fb2e0641311d7e41331bc3}{{5.16.2.1}{56}{Protein\+\_\+\+E\+P300}{subsubsection.5.16.2.1}{}}
\@writefile{toc}{\contentsline {subsection}{\numberline {5.16.3}Member Function Documentation}{56}{subsection.5.16.3}}
\@writefile{toc}{\contentsline {subsubsection}{\numberline {5.16.3.1}activity}{56}{subsubsection.5.16.3.1}}
\newlabel{classmi_r_net_1_1agents_1_1_protein___e_p300_a6316568f02feeafcb035b1ec27e475f6}{{5.16.3.1}{56}{activity}{subsubsection.5.16.3.1}{}}
\@writefile{toc}{\contentsline {subsubsection}{\numberline {5.16.3.2}C\discretionary {\unhbox \voidb@x \hbox {\relax \fontsize  {7}{8}\selectfont  $\leftarrow \joinrel  \rhook $}}{}{}R\discretionary {\unhbox \voidb@x \hbox {\relax \fontsize  {7}{8}\selectfont  $\leftarrow \joinrel  \rhook $}}{}{}E\discretionary {\unhbox \voidb@x \hbox {\relax \fontsize  {7}{8}\selectfont  $\leftarrow \joinrel  \rhook $}}{}{}Bbinding}{56}{subsubsection.5.16.3.2}}
\newlabel{classmi_r_net_1_1agents_1_1_protein___e_p300_a6a5dde50e2a57fb80511b0827dc5b870}{{5.16.3.2}{56}{C\+R\+E\+Bbinding}{subsubsection.5.16.3.2}{}}
\@writefile{toc}{\contentsline {subsubsection}{\numberline {5.16.3.3}events\discretionary {\unhbox \voidb@x \hbox {\relax \fontsize  {7}{8}\selectfont  $\leftarrow \joinrel  \rhook $}}{}{}Post\discretionary {\unhbox \voidb@x \hbox {\relax \fontsize  {7}{8}\selectfont  $\leftarrow \joinrel  \rhook $}}{}{}Transcriptional\discretionary {\unhbox \voidb@x \hbox {\relax \fontsize  {7}{8}\selectfont  $\leftarrow \joinrel  \rhook $}}{}{}Activation}{56}{subsubsection.5.16.3.3}}
\newlabel{classmi_r_net_1_1agents_1_1_protein___e_p300_a7dc6fa01f2c4b55d8cf0dcc11dcdd928}{{5.16.3.3}{56}{events\+Post\+Transcriptional\+Activation}{subsubsection.5.16.3.3}{}}
\@writefile{toc}{\contentsline {subsubsection}{\numberline {5.16.3.4}get\discretionary {\unhbox \voidb@x \hbox {\relax \fontsize  {7}{8}\selectfont  $\leftarrow \joinrel  \rhook $}}{}{}Available\discretionary {\unhbox \voidb@x \hbox {\relax \fontsize  {7}{8}\selectfont  $\leftarrow \joinrel  \rhook $}}{}{}To\discretionary {\unhbox \voidb@x \hbox {\relax \fontsize  {7}{8}\selectfont  $\leftarrow \joinrel  \rhook $}}{}{}C\discretionary {\unhbox \voidb@x \hbox {\relax \fontsize  {7}{8}\selectfont  $\leftarrow \joinrel  \rhook $}}{}{}R\discretionary {\unhbox \voidb@x \hbox {\relax \fontsize  {7}{8}\selectfont  $\leftarrow \joinrel  \rhook $}}{}{}E\discretionary {\unhbox \voidb@x \hbox {\relax \fontsize  {7}{8}\selectfont  $\leftarrow \joinrel  \rhook $}}{}{}B}{56}{subsubsection.5.16.3.4}}
\newlabel{classmi_r_net_1_1agents_1_1_protein___e_p300_a96aa76a9e66ab0bfe07280752dd8d868}{{5.16.3.4}{56}{get\+Available\+To\+C\+R\+E\+B}{subsubsection.5.16.3.4}{}}
\@writefile{toc}{\contentsline {subsubsection}{\numberline {5.16.3.5}get\discretionary {\unhbox \voidb@x \hbox {\relax \fontsize  {7}{8}\selectfont  $\leftarrow \joinrel  \rhook $}}{}{}Bound\discretionary {\unhbox \voidb@x \hbox {\relax \fontsize  {7}{8}\selectfont  $\leftarrow \joinrel  \rhook $}}{}{}C\discretionary {\unhbox \voidb@x \hbox {\relax \fontsize  {7}{8}\selectfont  $\leftarrow \joinrel  \rhook $}}{}{}R\discretionary {\unhbox \voidb@x \hbox {\relax \fontsize  {7}{8}\selectfont  $\leftarrow \joinrel  \rhook $}}{}{}E\discretionary {\unhbox \voidb@x \hbox {\relax \fontsize  {7}{8}\selectfont  $\leftarrow \joinrel  \rhook $}}{}{}B}{56}{subsubsection.5.16.3.5}}
\newlabel{classmi_r_net_1_1agents_1_1_protein___e_p300_a09be49be67dd284921230ac37571f969}{{5.16.3.5}{56}{get\+Bound\+C\+R\+E\+B}{subsubsection.5.16.3.5}{}}
\gdef \PWST@xxiii{1}
\@writefile{toc}{\contentsline {subsubsection}{\numberline {5.16.3.6}get\discretionary {\unhbox \voidb@x \hbox {\relax \fontsize  {7}{8}\selectfont  $\leftarrow \joinrel  \rhook $}}{}{}In\discretionary {\unhbox \voidb@x \hbox {\relax \fontsize  {7}{8}\selectfont  $\leftarrow \joinrel  \rhook $}}{}{}Cytoplasm}{57}{subsubsection.5.16.3.6}}
\newlabel{classmi_r_net_1_1agents_1_1_protein___e_p300_ab6967b1a3e884d34b924c095b7a34698}{{5.16.3.6}{57}{get\+In\+Cytoplasm}{subsubsection.5.16.3.6}{}}
\@writefile{toc}{\contentsline {subsubsection}{\numberline {5.16.3.7}move}{57}{subsubsection.5.16.3.7}}
\newlabel{classmi_r_net_1_1agents_1_1_protein___e_p300_ad57e5a68e623b215dd70e2181f22ac0b}{{5.16.3.7}{57}{move}{subsubsection.5.16.3.7}{}}
\@writefile{toc}{\contentsline {subsubsection}{\numberline {5.16.3.8}move\discretionary {\unhbox \voidb@x \hbox {\relax \fontsize  {7}{8}\selectfont  $\leftarrow \joinrel  \rhook $}}{}{}Towards\discretionary {\unhbox \voidb@x \hbox {\relax \fontsize  {7}{8}\selectfont  $\leftarrow \joinrel  \rhook $}}{}{}Promoter}{57}{subsubsection.5.16.3.8}}
\newlabel{classmi_r_net_1_1agents_1_1_protein___e_p300_aea31bca5e7c815a73c237a5a975b89aa}{{5.16.3.8}{57}{move\+Towards\+Promoter}{subsubsection.5.16.3.8}{}}
\@writefile{toc}{\contentsline {subsubsection}{\numberline {5.16.3.9}set\discretionary {\unhbox \voidb@x \hbox {\relax \fontsize  {7}{8}\selectfont  $\leftarrow \joinrel  \rhook $}}{}{}Available\discretionary {\unhbox \voidb@x \hbox {\relax \fontsize  {7}{8}\selectfont  $\leftarrow \joinrel  \rhook $}}{}{}To\discretionary {\unhbox \voidb@x \hbox {\relax \fontsize  {7}{8}\selectfont  $\leftarrow \joinrel  \rhook $}}{}{}C\discretionary {\unhbox \voidb@x \hbox {\relax \fontsize  {7}{8}\selectfont  $\leftarrow \joinrel  \rhook $}}{}{}R\discretionary {\unhbox \voidb@x \hbox {\relax \fontsize  {7}{8}\selectfont  $\leftarrow \joinrel  \rhook $}}{}{}E\discretionary {\unhbox \voidb@x \hbox {\relax \fontsize  {7}{8}\selectfont  $\leftarrow \joinrel  \rhook $}}{}{}B}{57}{subsubsection.5.16.3.9}}
\newlabel{classmi_r_net_1_1agents_1_1_protein___e_p300_acd6b276ff924786c491973022c597c2c}{{5.16.3.9}{57}{set\+Available\+To\+C\+R\+E\+B}{subsubsection.5.16.3.9}{}}
\@writefile{toc}{\contentsline {section}{\numberline {5.17}mi\discretionary {\unhbox \voidb@x \hbox {\relax \fontsize  {7}{8}\selectfont  $\leftarrow \joinrel  \rhook $}}{}{}R\discretionary {\unhbox \voidb@x \hbox {\relax \fontsize  {7}{8}\selectfont  $\leftarrow \joinrel  \rhook $}}{}{}Net.\discretionary {\unhbox \voidb@x \hbox {\relax \fontsize  {7}{8}\selectfont  $\leftarrow \joinrel  \rhook $}}{}{}agents.\discretionary {\unhbox \voidb@x \hbox {\relax \fontsize  {7}{8}\selectfont  $\leftarrow \joinrel  \rhook $}}{}{}Ribosome Class Reference}{57}{section.5.17}}
\newlabel{classmi_r_net_1_1agents_1_1_ribosome}{{5.17}{57}{mi\+R\+Net.\+agents.\+Ribosome Class Reference}{section.5.17}{}}
\newlabel{classmi_r_net_1_1agents_1_1_ribosome_a171e5a5d3e31e920b0d599772dda3c7d}{{5.17}{57}{Public Attributes}{section*.54}{}}
\gdef \PWST@xxiv{1}
\newlabel{classmi_r_net_1_1agents_1_1_ribosome_a21676c8e9860b66021d68ee98d2d890c}{{5.17}{60}{Private Attributes}{section*.55}{}}
\newlabel{classmi_r_net_1_1agents_1_1_ribosome_aee1b71beb4f0e883f287b21f5a7f68d9}{{5.17}{60}{Private Attributes}{section*.55}{}}
\newlabel{classmi_r_net_1_1agents_1_1_ribosome_ab64b9c467d29b23ce4169c6455673651}{{5.17}{60}{Private Attributes}{section*.55}{}}
\newlabel{classmi_r_net_1_1agents_1_1_ribosome_a046ec2d6ae8b9801c661fc4c21714d41}{{5.17}{60}{Private Attributes}{section*.55}{}}
\newlabel{classmi_r_net_1_1agents_1_1_ribosome_a7156ff7fdd42913cd25f1c63226be61a}{{5.17}{60}{Private Attributes}{section*.55}{}}
\@writefile{toc}{\contentsline {subsection}{\numberline {5.17.1}Detailed Description}{60}{subsection.5.17.1}}
\@writefile{toc}{\contentsline {subsection}{\numberline {5.17.2}Constructor \& Destructor Documentation}{60}{subsection.5.17.2}}
\@writefile{toc}{\contentsline {subsubsection}{\numberline {5.17.2.1}Ribosome}{60}{subsubsection.5.17.2.1}}
\newlabel{classmi_r_net_1_1agents_1_1_ribosome_aa6cb09032d86b050bdadfdbbf9dc34fe}{{5.17.2.1}{60}{Ribosome}{subsubsection.5.17.2.1}{}}
\@writefile{toc}{\contentsline {subsection}{\numberline {5.17.3}Member Function Documentation}{60}{subsection.5.17.3}}
\@writefile{toc}{\contentsline {subsubsection}{\numberline {5.17.3.1}A\discretionary {\unhbox \voidb@x \hbox {\relax \fontsize  {7}{8}\selectfont  $\leftarrow \joinrel  \rhook $}}{}{}G\discretionary {\unhbox \voidb@x \hbox {\relax \fontsize  {7}{8}\selectfont  $\leftarrow \joinrel  \rhook $}}{}{}O2binding}{60}{subsubsection.5.17.3.1}}
\newlabel{classmi_r_net_1_1agents_1_1_ribosome_a4759e66f44252b61bfcd22e1780128d0}{{5.17.3.1}{60}{A\+G\+O2binding}{subsubsection.5.17.3.1}{}}
\@writefile{toc}{\contentsline {subsubsection}{\numberline {5.17.3.2}A\discretionary {\unhbox \voidb@x \hbox {\relax \fontsize  {7}{8}\selectfont  $\leftarrow \joinrel  \rhook $}}{}{}G\discretionary {\unhbox \voidb@x \hbox {\relax \fontsize  {7}{8}\selectfont  $\leftarrow \joinrel  \rhook $}}{}{}O2\discretionary {\unhbox \voidb@x \hbox {\relax \fontsize  {7}{8}\selectfont  $\leftarrow \joinrel  \rhook $}}{}{}Translation}{60}{subsubsection.5.17.3.2}}
\newlabel{classmi_r_net_1_1agents_1_1_ribosome_a516df6c40f93015aaa52f4d463a4ca8f}{{5.17.3.2}{60}{A\+G\+O2\+Translation}{subsubsection.5.17.3.2}{}}
\@writefile{toc}{\contentsline {subsubsection}{\numberline {5.17.3.3}E\discretionary {\unhbox \voidb@x \hbox {\relax \fontsize  {7}{8}\selectfont  $\leftarrow \joinrel  \rhook $}}{}{}P300binding}{60}{subsubsection.5.17.3.3}}
\newlabel{classmi_r_net_1_1agents_1_1_ribosome_a5ed8399a2f9ea480caaf164fceaab05d}{{5.17.3.3}{60}{E\+P300binding}{subsubsection.5.17.3.3}{}}
\@writefile{toc}{\contentsline {subsubsection}{\numberline {5.17.3.4}E\discretionary {\unhbox \voidb@x \hbox {\relax \fontsize  {7}{8}\selectfont  $\leftarrow \joinrel  \rhook $}}{}{}P300\discretionary {\unhbox \voidb@x \hbox {\relax \fontsize  {7}{8}\selectfont  $\leftarrow \joinrel  \rhook $}}{}{}Translation}{60}{subsubsection.5.17.3.4}}
\newlabel{classmi_r_net_1_1agents_1_1_ribosome_a1f6e1ca110518454c147ac6031f2d165}{{5.17.3.4}{60}{E\+P300\+Translation}{subsubsection.5.17.3.4}{}}
\gdef \PWST@xxv{1}
\@writefile{toc}{\contentsline {subsubsection}{\numberline {5.17.3.5}get\discretionary {\unhbox \voidb@x \hbox {\relax \fontsize  {7}{8}\selectfont  $\leftarrow \joinrel  \rhook $}}{}{}Is\discretionary {\unhbox \voidb@x \hbox {\relax \fontsize  {7}{8}\selectfont  $\leftarrow \joinrel  \rhook $}}{}{}Bound}{61}{subsubsection.5.17.3.5}}
\newlabel{classmi_r_net_1_1agents_1_1_ribosome_ab4e77e1849c114e5548491b151b11005}{{5.17.3.5}{61}{get\+Is\+Bound}{subsubsection.5.17.3.5}{}}
\@writefile{toc}{\contentsline {section}{\numberline {5.18}mi\discretionary {\unhbox \voidb@x \hbox {\relax \fontsize  {7}{8}\selectfont  $\leftarrow \joinrel  \rhook $}}{}{}R\discretionary {\unhbox \voidb@x \hbox {\relax \fontsize  {7}{8}\selectfont  $\leftarrow \joinrel  \rhook $}}{}{}Net.\discretionary {\unhbox \voidb@x \hbox {\relax \fontsize  {7}{8}\selectfont  $\leftarrow \joinrel  \rhook $}}{}{}R\discretionary {\unhbox \voidb@x \hbox {\relax \fontsize  {7}{8}\selectfont  $\leftarrow \joinrel  \rhook $}}{}{}N\discretionary {\unhbox \voidb@x \hbox {\relax \fontsize  {7}{8}\selectfont  $\leftarrow \joinrel  \rhook $}}{}{}A Class Reference}{61}{section.5.18}}
\newlabel{classmi_r_net_1_1_r_n_a}{{5.18}{61}{mi\+R\+Net.\+R\+N\+A Class Reference}{section.5.18}{}}
\@writefile{toc}{\contentsline {subsection}{\numberline {5.18.1}Detailed Description}{61}{subsection.5.18.1}}
\@writefile{toc}{\contentsline {subsection}{\numberline {5.18.2}Member Function Documentation}{61}{subsection.5.18.2}}
\@writefile{toc}{\contentsline {subsubsection}{\numberline {5.18.2.1}move\discretionary {\unhbox \voidb@x \hbox {\relax \fontsize  {7}{8}\selectfont  $\leftarrow \joinrel  \rhook $}}{}{}Randomly}{61}{subsubsection.5.18.2.1}}
\newlabel{classmi_r_net_1_1_r_n_a_afa9a800d3b83f12943c1a2170890cc7f}{{5.18.2.1}{61}{move\+Randomly}{subsubsection.5.18.2.1}{}}
